[
  {
    "IdCap": 3,
    "Ukuran": 0.60,
    "NamaCap": "LLP + 300",
    "Gambar": null,
    "DisplayCap": "LLP + 300 - 0.60",
    "IdKadar": 8,
    "Kadar": 30.00,
    "BeratJenis": 10.43,
    "Purity": 7,
    "KadarLokal": 28.00,
    "KadarEkspor": 30.00
  },
  {
    "IdCap": 109,
    "Ukuran": 0.00,
    "NamaCap": "LIHAT KETERANGAN",
    "Gambar": null,
    "DisplayCap": "LIHAT KETERANGAN - 0.00",
    "IdKadar": 8,
    "Kadar": 30.00,
    "BeratJenis": 10.43,
    "Purity": 7,
    "KadarLokal": 28.00,
    "KadarEkspor": 30.00
  },
  {
    "IdCap": 103,
    "Ukuran": 0.00,
    "NamaCap": "375 + LOGO (IBB)",
    "Gambar": "Z:\\IT\\IT2 (Wiliam)\\RND\\Gambar Cap\\375 + LOGO (IBB)-0.jpg",
    "DisplayCap": "375 + LOGO (IBB) - 0.00",
    "IdKadar": 10,
    "Kadar": 38.00,
    "BeratJenis": 11.15,
    "Purity": 9,
    "KadarLokal": 37.00,
    "KadarEkspor": 38.00
  },
  {
    "IdCap": 113,
    "Ukuran": 0.00,
    "NamaCap": "375 + ITALY",
    "Gambar": null,
    "DisplayCap": "375 + ITALY - 0.00",
    "IdKadar": 10,
    "Kadar": 38.00,
    "BeratJenis": 11.15,
    "Purity": 9,
    "KadarLokal": 37.00,
    "KadarEkspor": 38.00
  },
  {
    "IdCap": 68,
    "Ukuran": 0.60,
    "NamaCap": "LLP + 375",
    "Gambar": null,
    "DisplayCap": "LLP + 375 - 0.60",
    "IdKadar": 10,
    "Kadar": 38.00,
    "BeratJenis": 11.15,
    "Purity": 9,
    "KadarLokal": 37.00,
    "KadarEkspor": 38.00
  },
  {
    "IdCap": 130,
    "Ukuran": 0.00,
    "NamaCap": "375",
    "Gambar": null,
    "DisplayCap": "375 - 0.00",
    "IdKadar": 10,
    "Kadar": 38.00,
    "BeratJenis": 11.15,
    "Purity": 9,
    "KadarLokal": 37.00,
    "KadarEkspor": 38.00
  },
  {
    "IdCap": 148,
    "Ukuran": 0.00,
    "NamaCap": "375 + gantungan logo (TP)",
    "Gambar": null,
    "DisplayCap": "375 + gantungan logo (TP) - 0.00",
    "IdKadar": 10,
    "Kadar": 38.00,
    "BeratJenis": 11.15,
    "Purity": 9,
    "KadarLokal": 37.00,
    "KadarEkspor": 38.00
  },
  {
    "IdCap": 161,
    "Ukuran": 0.00,
    "NamaCap": "LOGO (WL)_375",
    "Gambar": null,
    "DisplayCap": "LOGO (WL)_375 - 0.00",
    "IdKadar": 10,
    "Kadar": 38.00,
    "BeratJenis": 11.15,
    "Purity": 9,
    "KadarLokal": 37.00,
    "KadarEkspor": 38.00
  },
  {
    "IdCap": 162,
    "Ukuran": 0.00,
    "NamaCap": "Whizliz_9k",
    "Gambar": null,
    "DisplayCap": "Whizliz_9k - 0.00",
    "IdKadar": 10,
    "Kadar": 38.00,
    "BeratJenis": 11.15,
    "Purity": 9,
    "KadarLokal": 37.00,
    "KadarEkspor": 38.00
  },
  {
    "IdCap": 169,
    "Ukuran": 0.00,
    "NamaCap": "whizliz_9k",
    "Gambar": null,
    "DisplayCap": "whizliz_9k - 0.00",
    "IdKadar": 10,
    "Kadar": 38.00,
    "BeratJenis": 11.15,
    "Purity": 9,
    "KadarLokal": 37.00,
    "KadarEkspor": 38.00
  },
  {
    "IdCap": 198,
    "Ukuran": 0.00,
    "NamaCap": "375 + RJ",
    "Gambar": null,
    "DisplayCap": "375 + RJ - 0.00",
    "IdKadar": 10,
    "Kadar": 38.00,
    "BeratJenis": 11.15,
    "Purity": 9,
    "KadarLokal": 37.00,
    "KadarEkspor": 38.00
  },
  {
    "IdCap": 200,
    "Ukuran": 0.00,
    "NamaCap": "10KT + ADLR",
    "Gambar": null,
    "DisplayCap": "10KT + ADLR - 0.00",
    "IdKadar": 11,
    "Kadar": 41.00,
    "BeratJenis": 11.45,
    "Purity": 10,
    "KadarLokal": 41.00,
    "KadarEkspor": 42.00
  },
  {
    "IdCap": 202,
    "Ukuran": 0.00,
    "NamaCap": "RCI + 10K",
    "Gambar": null,
    "DisplayCap": "RCI + 10K - 0.00",
    "IdKadar": 11,
    "Kadar": 41.00,
    "BeratJenis": 11.45,
    "Purity": 10,
    "KadarLokal": 41.00,
    "KadarEkspor": 42.00
  },
  {
    "IdCap": 204,
    "Ukuran": 0.00,
    "NamaCap": "RCI + 10KT",
    "Gambar": null,
    "DisplayCap": "RCI + 10KT - 0.00",
    "IdKadar": 11,
    "Kadar": 41.00,
    "BeratJenis": 11.45,
    "Purity": 10,
    "KadarLokal": 41.00,
    "KadarEkspor": 42.00
  },
  {
    "IdCap": 172,
    "Ukuran": 0.00,
    "NamaCap": "RCI + 10KT + ID",
    "Gambar": null,
    "DisplayCap": "RCI + 10KT + ID - 0.00",
    "IdKadar": 11,
    "Kadar": 41.00,
    "BeratJenis": 11.45,
    "Purity": 10,
    "KadarLokal": 41.00,
    "KadarEkspor": 42.00
  },
  {
    "IdCap": 176,
    "Ukuran": 0.00,
    "NamaCap": "10K_FJ",
    "Gambar": null,
    "DisplayCap": "10K_FJ - 0.00",
    "IdKadar": 11,
    "Kadar": 41.00,
    "BeratJenis": 11.45,
    "Purity": 10,
    "KadarLokal": 41.00,
    "KadarEkspor": 42.00
  },
  {
    "IdCap": 164,
    "Ukuran": 0.00,
    "NamaCap": "10K_EC",
    "Gambar": null,
    "DisplayCap": "10K_EC - 0.00",
    "IdKadar": 11,
    "Kadar": 41.00,
    "BeratJenis": 11.45,
    "Purity": 10,
    "KadarLokal": 41.00,
    "KadarEkspor": 42.00
  },
  {
    "IdCap": 182,
    "Ukuran": 0.00,
    "NamaCap": "FZN + 10KT + ID",
    "Gambar": null,
    "DisplayCap": "FZN + 10KT + ID - 0.00",
    "IdKadar": 11,
    "Kadar": 41.00,
    "BeratJenis": 11.45,
    "Purity": 10,
    "KadarLokal": 41.00,
    "KadarEkspor": 42.00
  },
  {
    "IdCap": 179,
    "Ukuran": 0.00,
    "NamaCap": "417 + LOGO (CBE)",
    "Gambar": null,
    "DisplayCap": "417 + LOGO (CBE) - 0.00",
    "IdKadar": 11,
    "Kadar": 41.00,
    "BeratJenis": 11.45,
    "Purity": 10,
    "KadarLokal": 41.00,
    "KadarEkspor": 42.00
  },
  {
    "IdCap": 180,
    "Ukuran": 0.00,
    "NamaCap": "10K + GND",
    "Gambar": null,
    "DisplayCap": "10K + GND - 0.00",
    "IdKadar": 11,
    "Kadar": 41.00,
    "BeratJenis": 11.45,
    "Purity": 10,
    "KadarLokal": 41.00,
    "KadarEkspor": 42.00
  },
  {
    "IdCap": 191,
    "Ukuran": 0.00,
    "NamaCap": "10KT + ZCI",
    "Gambar": null,
    "DisplayCap": "10KT + ZCI - 0.00",
    "IdKadar": 11,
    "Kadar": 41.00,
    "BeratJenis": 11.45,
    "Purity": 10,
    "KadarLokal": 41.00,
    "KadarEkspor": 42.00
  },
  {
    "IdCap": 195,
    "Ukuran": 0.00,
    "NamaCap": "10 KT + LOGO (Ruby)",
    "Gambar": null,
    "DisplayCap": "10 KT + LOGO (Ruby) - 0.00",
    "IdKadar": 11,
    "Kadar": 41.00,
    "BeratJenis": 11.45,
    "Purity": 10,
    "KadarLokal": 41.00,
    "KadarEkspor": 42.00
  },
  {
    "IdCap": 145,
    "Ukuran": 0.00,
    "NamaCap": "10KT + GS",
    "Gambar": null,
    "DisplayCap": "10KT + GS - 0.00",
    "IdKadar": 11,
    "Kadar": 41.00,
    "BeratJenis": 11.45,
    "Purity": 10,
    "KadarLokal": 41.00,
    "KadarEkspor": 42.00
  },
  {
    "IdCap": 129,
    "Ukuran": 0.00,
    "NamaCap": "10K_Indonesia + Logo dasan",
    "Gambar": "Z:\\IT\\IT2 (Wiliam)\\RND\\Gambar Cap\\10K INDONESIA + LOGO DASAN-0.jpg",
    "DisplayCap": "10K_Indonesia + Logo dasan - 0.00",
    "IdKadar": 11,
    "Kadar": 41.00,
    "BeratJenis": 11.45,
    "Purity": 10,
    "KadarLokal": 41.00,
    "KadarEkspor": 42.00
  },
  {
    "IdCap": 155,
    "Ukuran": 0.00,
    "NamaCap": "AE + 10KT",
    "Gambar": null,
    "DisplayCap": "AE + 10KT - 0.00",
    "IdKadar": 11,
    "Kadar": 41.00,
    "BeratJenis": 11.45,
    "Purity": 10,
    "KadarLokal": 41.00,
    "KadarEkspor": 42.00
  },
  {
    "IdCap": 158,
    "Ukuran": 0.00,
    "NamaCap": "TIMES OF LOVE + HK + 10K",
    "Gambar": "Z:\\IT\\IT2 (Wiliam)\\RND\\Gambar Cap\\MOMENTS OF LOVE + HK + 10K-0.jpg",
    "DisplayCap": "TIMES OF LOVE + HK + 10K - 0.00",
    "IdKadar": 11,
    "Kadar": 41.00,
    "BeratJenis": 11.45,
    "Purity": 10,
    "KadarLokal": 41.00,
    "KadarEkspor": 42.00
  },
  {
    "IdCap": 137,
    "Ukuran": 0.00,
    "NamaCap": "10KT",
    "Gambar": null,
    "DisplayCap": "10KT - 0.00",
    "IdKadar": 11,
    "Kadar": 41.00,
    "BeratJenis": 11.45,
    "Purity": 10,
    "KadarLokal": 41.00,
    "KadarEkspor": 42.00
  },
  {
    "IdCap": 140,
    "Ukuran": 0.00,
    "NamaCap": "10 KT + LOGO (Ruby)",
    "Gambar": null,
    "DisplayCap": "10 KT + LOGO (Ruby) - 0.00",
    "IdKadar": 11,
    "Kadar": 41.00,
    "BeratJenis": 11.45,
    "Purity": 10,
    "KadarLokal": 41.00,
    "KadarEkspor": 42.00
  },
  {
    "IdCap": 116,
    "Ukuran": 0.00,
    "NamaCap": "ITALY + 417",
    "Gambar": null,
    "DisplayCap": "ITALY + 417 - 0.00",
    "IdKadar": 11,
    "Kadar": 41.00,
    "BeratJenis": 11.45,
    "Purity": 10,
    "KadarLokal": 41.00,
    "KadarEkspor": 42.00
  },
  {
    "IdCap": 104,
    "Ukuran": 0.00,
    "NamaCap": "ITALY + 10 K",
    "Gambar": null,
    "DisplayCap": "ITALY + 10 K - 0.00",
    "IdKadar": 11,
    "Kadar": 41.00,
    "BeratJenis": 11.45,
    "Purity": 10,
    "KadarLokal": 41.00,
    "KadarEkspor": 42.00
  },
  {
    "IdCap": 77,
    "Ukuran": 0.60,
    "NamaCap": "LLP + 5",
    "Gambar": null,
    "DisplayCap": "LLP + 5 - 0.60",
    "IdKadar": 12,
    "Kadar": 45.00,
    "BeratJenis": 11.75,
    "Purity": 10,
    "KadarLokal": 45.00,
    "KadarEkspor": 45.00
  },
  {
    "IdCap": 76,
    "Ukuran": 0.60,
    "NamaCap": "LLP + 585",
    "Gambar": "Z:\\IT\\IT2 (Wiliam)\\RND\\Gambar Cap\\585-0.60.jpg",
    "DisplayCap": "LLP + 585 - 0.60",
    "IdKadar": 13,
    "Kadar": 58.00,
    "BeratJenis": 13.00,
    "Purity": 14,
    "KadarLokal": 58.00,
    "KadarEkspor": 58.60
  },
  {
    "IdCap": 81,
    "Ukuran": 0.00,
    "NamaCap": "585 + BJ",
    "Gambar": null,
    "DisplayCap": "585 + BJ - 0.00",
    "IdKadar": 13,
    "Kadar": 58.00,
    "BeratJenis": 13.00,
    "Purity": 14,
    "KadarLokal": 58.00,
    "KadarEkspor": 58.60
  },
  {
    "IdCap": 82,
    "Ukuran": 0.00,
    "NamaCap": "585 + ITALY_ K",
    "Gambar": null,
    "DisplayCap": "585 + ITALY_ K - 0.00",
    "IdKadar": 13,
    "Kadar": 58.00,
    "BeratJenis": 13.00,
    "Purity": 14,
    "KadarLokal": 58.00,
    "KadarEkspor": 58.60
  },
  {
    "IdCap": 83,
    "Ukuran": 0.00,
    "NamaCap": "14KT",
    "Gambar": null,
    "DisplayCap": "14KT - 0.00",
    "IdKadar": 13,
    "Kadar": 58.00,
    "BeratJenis": 13.00,
    "Purity": 14,
    "KadarLokal": 58.00,
    "KadarEkspor": 58.60
  },
  {
    "IdCap": 84,
    "Ukuran": 0.00,
    "NamaCap": "14K + INDONESIA + LOGO (DASAN) ",
    "Gambar": "Z:\\IT\\IT2 (Wiliam)\\RND\\Gambar Cap\\LOGO (DASAN) + 14 K ID-0.jpg",
    "DisplayCap": "14K + INDONESIA + LOGO (DASAN)  - 0.00",
    "IdKadar": 13,
    "Kadar": 58.00,
    "BeratJenis": 13.00,
    "Purity": 14,
    "KadarLokal": 58.00,
    "KadarEkspor": 58.60
  },
  {
    "IdCap": 85,
    "Ukuran": 0.00,
    "NamaCap": "585 + ITALY_M",
    "Gambar": null,
    "DisplayCap": "585 + ITALY_M - 0.00",
    "IdKadar": 13,
    "Kadar": 58.00,
    "BeratJenis": 13.00,
    "Purity": 14,
    "KadarLokal": 58.00,
    "KadarEkspor": 58.60
  },
  {
    "IdCap": 87,
    "Ukuran": 0.00,
    "NamaCap": "14K + ITALIAN + GOLD",
    "Gambar": null,
    "DisplayCap": "14K + ITALIAN + GOLD - 0.00",
    "IdKadar": 13,
    "Kadar": 58.00,
    "BeratJenis": 13.00,
    "Purity": 14,
    "KadarLokal": 58.00,
    "KadarEkspor": 58.60
  },
  {
    "IdCap": 88,
    "Ukuran": 0.00,
    "NamaCap": "14KT + INDONESIA + RCI",
    "Gambar": null,
    "DisplayCap": "14KT + INDONESIA + RCI - 0.00",
    "IdKadar": 13,
    "Kadar": 58.00,
    "BeratJenis": 13.00,
    "Purity": 14,
    "KadarLokal": 58.00,
    "KadarEkspor": 58.60
  },
  {
    "IdCap": 90,
    "Ukuran": 0.00,
    "NamaCap": "585",
    "Gambar": null,
    "DisplayCap": "585 - 0.00",
    "IdKadar": 13,
    "Kadar": 58.00,
    "BeratJenis": 13.00,
    "Purity": 14,
    "KadarLokal": 58.00,
    "KadarEkspor": 58.60
  },
  {
    "IdCap": 138,
    "Ukuran": 0.00,
    "NamaCap": "14 K + S",
    "Gambar": null,
    "DisplayCap": "14 K + S - 0.00",
    "IdKadar": 13,
    "Kadar": 58.00,
    "BeratJenis": 13.00,
    "Purity": 14,
    "KadarLokal": 58.00,
    "KadarEkspor": 58.60
  },
  {
    "IdCap": 131,
    "Ukuran": 0.00,
    "NamaCap": "585_LOGO (Brio)",
    "Gambar": "Z:\\IT\\IT2 (Wiliam)\\RND\\Gambar Cap\\585_LOGO (BRIO)-0.jpg",
    "DisplayCap": "585_LOGO (Brio) - 0.00",
    "IdKadar": 13,
    "Kadar": 58.00,
    "BeratJenis": 13.00,
    "Purity": 14,
    "KadarLokal": 58.00,
    "KadarEkspor": 58.60
  },
  {
    "IdCap": 119,
    "Ukuran": 0.00,
    "NamaCap": "Au585",
    "Gambar": null,
    "DisplayCap": "Au585 - 0.00",
    "IdKadar": 13,
    "Kadar": 58.00,
    "BeratJenis": 13.00,
    "Purity": 14,
    "KadarLokal": 58.00,
    "KadarEkspor": 58.60
  },
  {
    "IdCap": 120,
    "Ukuran": 0.00,
    "NamaCap": "14KT+ GS",
    "Gambar": null,
    "DisplayCap": "14KT+ GS - 0.00",
    "IdKadar": 13,
    "Kadar": 58.00,
    "BeratJenis": 13.00,
    "Purity": 14,
    "KadarLokal": 58.00,
    "KadarEkspor": 58.60
  },
  {
    "IdCap": 121,
    "Ukuran": 0.00,
    "NamaCap": "14K + AD",
    "Gambar": null,
    "DisplayCap": "14K + AD - 0.00",
    "IdKadar": 13,
    "Kadar": 58.00,
    "BeratJenis": 13.00,
    "Purity": 14,
    "KadarLokal": 58.00,
    "KadarEkspor": 58.60
  },
  {
    "IdCap": 123,
    "Ukuran": 0.00,
    "NamaCap": "14K_FJ",
    "Gambar": null,
    "DisplayCap": "14K_FJ - 0.00",
    "IdKadar": 13,
    "Kadar": 58.00,
    "BeratJenis": 13.00,
    "Purity": 14,
    "KadarLokal": 58.00,
    "KadarEkspor": 58.60
  },
  {
    "IdCap": 154,
    "Ukuran": 0.00,
    "NamaCap": "14K + AE",
    "Gambar": null,
    "DisplayCap": "14K + AE - 0.00",
    "IdKadar": 13,
    "Kadar": 58.00,
    "BeratJenis": 13.00,
    "Purity": 14,
    "KadarLokal": 58.00,
    "KadarEkspor": 58.60
  },
  {
    "IdCap": 152,
    "Ukuran": 0.00,
    "NamaCap": "ITALY + 585",
    "Gambar": null,
    "DisplayCap": "ITALY + 585 - 0.00",
    "IdKadar": 13,
    "Kadar": 58.00,
    "BeratJenis": 13.00,
    "Purity": 14,
    "KadarLokal": 58.00,
    "KadarEkspor": 58.60
  },
  {
    "IdCap": 142,
    "Ukuran": 0.00,
    "NamaCap": "14KT + LOGO (Ruby)",
    "Gambar": null,
    "DisplayCap": "14KT + LOGO (Ruby) - 0.00",
    "IdKadar": 13,
    "Kadar": 58.00,
    "BeratJenis": 13.00,
    "Purity": 14,
    "KadarLokal": 58.00,
    "KadarEkspor": 58.60
  },
  {
    "IdCap": 150,
    "Ukuran": 0.00,
    "NamaCap": "14KT + RCI + ID",
    "Gambar": null,
    "DisplayCap": "14KT + RCI + ID - 0.00",
    "IdKadar": 13,
    "Kadar": 58.00,
    "BeratJenis": 13.00,
    "Purity": 14,
    "KadarLokal": 58.00,
    "KadarEkspor": 58.60
  },
  {
    "IdCap": 190,
    "Ukuran": 0.00,
    "NamaCap": "14KT + ZCI",
    "Gambar": null,
    "DisplayCap": "14KT + ZCI - 0.00",
    "IdKadar": 13,
    "Kadar": 58.00,
    "BeratJenis": 13.00,
    "Purity": 14,
    "KadarLokal": 58.00,
    "KadarEkspor": 58.60
  },
  {
    "IdCap": 181,
    "Ukuran": 0.00,
    "NamaCap": "14K + MF-83",
    "Gambar": null,
    "DisplayCap": "14K + MF-83 - 0.00",
    "IdKadar": 13,
    "Kadar": 58.00,
    "BeratJenis": 13.00,
    "Purity": 14,
    "KadarLokal": 58.00,
    "KadarEkspor": 58.60
  },
  {
    "IdCap": 183,
    "Ukuran": 0.00,
    "NamaCap": "14KT + MK",
    "Gambar": null,
    "DisplayCap": "14KT + MK - 0.00",
    "IdKadar": 13,
    "Kadar": 58.00,
    "BeratJenis": 13.00,
    "Purity": 14,
    "KadarLokal": 58.00,
    "KadarEkspor": 58.60
  },
  {
    "IdCap": 184,
    "Ukuran": 0.00,
    "NamaCap": "14KT + ADLR",
    "Gambar": null,
    "DisplayCap": "14KT + ADLR - 0.00",
    "IdKadar": 13,
    "Kadar": 58.00,
    "BeratJenis": 13.00,
    "Purity": 14,
    "KadarLokal": 58.00,
    "KadarEkspor": 58.60
  },
  {
    "IdCap": 186,
    "Ukuran": 0.00,
    "NamaCap": "14KT + LOGO (IBB) + Indonesia ",
    "Gambar": "\\\\192.168.0.2\\My Data Places\\IT\\IT2 (Wiliam)\\RND\\Gambar Cap\\14KT + LOGO (IBB) + INDONESIA -0.jpg",
    "DisplayCap": "14KT + LOGO (IBB) + Indonesia  - 0.00",
    "IdKadar": 13,
    "Kadar": 58.00,
    "BeratJenis": 13.00,
    "Purity": 14,
    "KadarLokal": 58.00,
    "KadarEkspor": 58.60
  },
  {
    "IdCap": 187,
    "Ukuran": 0.00,
    "NamaCap": "F + 14K",
    "Gambar": null,
    "DisplayCap": "F + 14K - 0.00",
    "IdKadar": 13,
    "Kadar": 58.00,
    "BeratJenis": 13.00,
    "Purity": 14,
    "KadarLokal": 58.00,
    "KadarEkspor": 58.60
  },
  {
    "IdCap": 165,
    "Ukuran": 0.00,
    "NamaCap": "14K_EHC",
    "Gambar": null,
    "DisplayCap": "14K_EHC - 0.00",
    "IdKadar": 13,
    "Kadar": 58.00,
    "BeratJenis": 13.00,
    "Purity": 14,
    "KadarLokal": 58.00,
    "KadarEkspor": 58.60
  },
  {
    "IdCap": 167,
    "Ukuran": 0.00,
    "NamaCap": "LEE + 14KT",
    "Gambar": null,
    "DisplayCap": "LEE + 14KT - 0.00",
    "IdKadar": 13,
    "Kadar": 58.00,
    "BeratJenis": 13.00,
    "Purity": 14,
    "KadarLokal": 58.00,
    "KadarEkspor": 58.60
  },
  {
    "IdCap": 168,
    "Ukuran": 0.00,
    "NamaCap": "RCI + 14KT",
    "Gambar": null,
    "DisplayCap": "RCI + 14KT - 0.00",
    "IdKadar": 13,
    "Kadar": 58.00,
    "BeratJenis": 13.00,
    "Purity": 14,
    "KadarLokal": 58.00,
    "KadarEkspor": 58.60
  },
  {
    "IdCap": 157,
    "Ukuran": 0.00,
    "NamaCap": "585 + Italy + AS",
    "Gambar": null,
    "DisplayCap": "585 + Italy + AS - 0.00",
    "IdKadar": 13,
    "Kadar": 58.00,
    "BeratJenis": 13.00,
    "Purity": 14,
    "KadarLokal": 58.00,
    "KadarEkspor": 58.60
  },
  {
    "IdCap": 177,
    "Ukuran": 0.00,
    "NamaCap": "585 + ITALY C",
    "Gambar": null,
    "DisplayCap": "585 + ITALY C - 0.00",
    "IdKadar": 13,
    "Kadar": 58.00,
    "BeratJenis": 13.00,
    "Purity": 14,
    "KadarLokal": 58.00,
    "KadarEkspor": 58.60
  },
  {
    "IdCap": 174,
    "Ukuran": 0.00,
    "NamaCap": "FZN + 585 + ID",
    "Gambar": null,
    "DisplayCap": "FZN + 585 + ID - 0.00",
    "IdKadar": 13,
    "Kadar": 58.00,
    "BeratJenis": 13.00,
    "Purity": 14,
    "KadarLokal": 58.00,
    "KadarEkspor": 58.60
  },
  {
    "IdCap": 72,
    "Ukuran": 0.60,
    "NamaCap": "LLP + 700",
    "Gambar": null,
    "DisplayCap": "LLP + 700 - 0.60",
    "IdKadar": 15,
    "Kadar": 70.00,
    "BeratJenis": 14.10,
    "Purity": 16,
    "KadarLokal": 69.00,
    "KadarEkspor": 70.00
  },
  {
    "IdCap": 6,
    "Ukuran": 0.60,
    "NamaCap": "LLP + 750",
    "Gambar": "Z:\\IT\\IT2 (Wiliam)\\RND\\Gambar Cap\\750-0.6.jpg",
    "DisplayCap": "LLP + 750 - 0.60",
    "IdKadar": 17,
    "Kadar": 75.00,
    "BeratJenis": 14.94,
    "Purity": 18,
    "KadarLokal": 74.00,
    "KadarEkspor": 75.10
  },
  {
    "IdCap": 79,
    "Ukuran": 0.40,
    "NamaCap": "Au750",
    "Gambar": null,
    "DisplayCap": "Au750 - 0.40",
    "IdKadar": 17,
    "Kadar": 75.00,
    "BeratJenis": 14.94,
    "Purity": 18,
    "KadarLokal": 74.00,
    "KadarEkspor": 75.10
  },
  {
    "IdCap": 89,
    "Ukuran": 0.00,
    "NamaCap": "750",
    "Gambar": null,
    "DisplayCap": "750 - 0.00",
    "IdKadar": 17,
    "Kadar": 75.00,
    "BeratJenis": 14.94,
    "Purity": 18,
    "KadarLokal": 74.00,
    "KadarEkspor": 75.10
  },
  {
    "IdCap": 91,
    "Ukuran": 0.00,
    "NamaCap": "750 + ITALY_G",
    "Gambar": null,
    "DisplayCap": "750 + ITALY_G - 0.00",
    "IdKadar": 17,
    "Kadar": 75.00,
    "BeratJenis": 14.94,
    "Purity": 18,
    "KadarLokal": 74.00,
    "KadarEkspor": 75.10
  },
  {
    "IdCap": 92,
    "Ukuran": 0.00,
    "NamaCap": "750 + BJ",
    "Gambar": null,
    "DisplayCap": "750 + BJ - 0.00",
    "IdKadar": 17,
    "Kadar": 75.00,
    "BeratJenis": 14.94,
    "Purity": 18,
    "KadarLokal": 74.00,
    "KadarEkspor": 75.10
  },
  {
    "IdCap": 93,
    "Ukuran": 0.00,
    "NamaCap": "Au750 + ITALY",
    "Gambar": null,
    "DisplayCap": "Au750 + ITALY - 0.00",
    "IdKadar": 17,
    "Kadar": 75.00,
    "BeratJenis": 14.94,
    "Purity": 18,
    "KadarLokal": 74.00,
    "KadarEkspor": 75.10
  },
  {
    "IdCap": 94,
    "Ukuran": 0.00,
    "NamaCap": "Au750 + ITALY_C",
    "Gambar": null,
    "DisplayCap": "Au750 + ITALY_C - 0.00",
    "IdKadar": 17,
    "Kadar": 75.00,
    "BeratJenis": 14.94,
    "Purity": 18,
    "KadarLokal": 74.00,
    "KadarEkspor": 75.10
  },
  {
    "IdCap": 95,
    "Ukuran": 0.00,
    "NamaCap": "Au750 + ITALY_J",
    "Gambar": null,
    "DisplayCap": "Au750 + ITALY_J - 0.00",
    "IdKadar": 17,
    "Kadar": 75.00,
    "BeratJenis": 14.94,
    "Purity": 18,
    "KadarLokal": 74.00,
    "KadarEkspor": 75.10
  },
  {
    "IdCap": 96,
    "Ukuran": 0.00,
    "NamaCap": "Au750 + GO",
    "Gambar": null,
    "DisplayCap": "Au750 + GO - 0.00",
    "IdKadar": 17,
    "Kadar": 75.00,
    "BeratJenis": 14.94,
    "Purity": 18,
    "KadarLokal": 74.00,
    "KadarEkspor": 75.10
  },
  {
    "IdCap": 97,
    "Ukuran": 0.00,
    "NamaCap": "ITALY + 750",
    "Gambar": null,
    "DisplayCap": "ITALY + 750 - 0.00",
    "IdKadar": 17,
    "Kadar": 75.00,
    "BeratJenis": 14.94,
    "Purity": 18,
    "KadarLokal": 74.00,
    "KadarEkspor": 75.10
  },
  {
    "IdCap": 98,
    "Ukuran": 0.00,
    "NamaCap": "ITALY + 750_M",
    "Gambar": null,
    "DisplayCap": "ITALY + 750_M - 0.00",
    "IdKadar": 17,
    "Kadar": 75.00,
    "BeratJenis": 14.94,
    "Purity": 18,
    "KadarLokal": 74.00,
    "KadarEkspor": 75.10
  },
  {
    "IdCap": 99,
    "Ukuran": 0.00,
    "NamaCap": "SWISSGOLD + 750",
    "Gambar": null,
    "DisplayCap": "SWISSGOLD + 750 - 0.00",
    "IdKadar": 17,
    "Kadar": 75.00,
    "BeratJenis": 14.94,
    "Purity": 18,
    "KadarLokal": 74.00,
    "KadarEkspor": 75.10
  },
  {
    "IdCap": 100,
    "Ukuran": 0.00,
    "NamaCap": "750 + ITALY_KL",
    "Gambar": null,
    "DisplayCap": "750 + ITALY_KL - 0.00",
    "IdKadar": 17,
    "Kadar": 75.00,
    "BeratJenis": 14.94,
    "Purity": 18,
    "KadarLokal": 74.00,
    "KadarEkspor": 75.10
  },
  {
    "IdCap": 110,
    "Ukuran": 0.00,
    "NamaCap": "Au750 + LOGO (BRIO)",
    "Gambar": "Z:\\IT\\IT2 (Wiliam)\\RND\\Gambar Cap\\AU750 + BRIO LOGO-0.jpg",
    "DisplayCap": "Au750 + LOGO (BRIO) - 0.00",
    "IdKadar": 17,
    "Kadar": 75.00,
    "BeratJenis": 14.94,
    "Purity": 18,
    "KadarLokal": 74.00,
    "KadarEkspor": 75.10
  },
  {
    "IdCap": 117,
    "Ukuran": 0.00,
    "NamaCap": "750 + ITALY_S",
    "Gambar": null,
    "DisplayCap": "750 + ITALY_S - 0.00",
    "IdKadar": 17,
    "Kadar": 75.00,
    "BeratJenis": 14.94,
    "Purity": 18,
    "KadarLokal": 74.00,
    "KadarEkspor": 75.10
  },
  {
    "IdCap": 118,
    "Ukuran": 0.00,
    "NamaCap": "18K750",
    "Gambar": null,
    "DisplayCap": "18K750 - 0.00",
    "IdKadar": 17,
    "Kadar": 75.00,
    "BeratJenis": 14.94,
    "Purity": 18,
    "KadarLokal": 74.00,
    "KadarEkspor": 75.10
  },
  {
    "IdCap": 149,
    "Ukuran": 0.00,
    "NamaCap": "750 + ITALY_C",
    "Gambar": null,
    "DisplayCap": "750 + ITALY_C - 0.00",
    "IdKadar": 17,
    "Kadar": 75.00,
    "BeratJenis": 14.94,
    "Purity": 18,
    "KadarLokal": 74.00,
    "KadarEkspor": 75.10
  },
  {
    "IdCap": 144,
    "Ukuran": 0.00,
    "NamaCap": "750 + ITALY_Y",
    "Gambar": null,
    "DisplayCap": "750 + ITALY_Y - 0.00",
    "IdKadar": 17,
    "Kadar": 75.00,
    "BeratJenis": 14.94,
    "Purity": 18,
    "KadarLokal": 74.00,
    "KadarEkspor": 75.10
  },
  {
    "IdCap": 146,
    "Ukuran": 0.00,
    "NamaCap": "LOGO (Lotus) + 750 + Indonesia",
    "Gambar": null,
    "DisplayCap": "LOGO (Lotus) + 750 + Indonesia - 0.00",
    "IdKadar": 17,
    "Kadar": 75.00,
    "BeratJenis": 14.94,
    "Purity": 18,
    "KadarLokal": 74.00,
    "KadarEkspor": 75.10
  },
  {
    "IdCap": 147,
    "Ukuran": 0.00,
    "NamaCap": "750 + gantungan logo (TP)",
    "Gambar": null,
    "DisplayCap": "750 + gantungan logo (TP) - 0.00",
    "IdKadar": 17,
    "Kadar": 75.00,
    "BeratJenis": 14.94,
    "Purity": 18,
    "KadarLokal": 74.00,
    "KadarEkspor": 75.10
  },
  {
    "IdCap": 153,
    "Ukuran": 0.00,
    "NamaCap": "CN + ITALY + 750 ",
    "Gambar": null,
    "DisplayCap": "CN + ITALY + 750  - 0.00",
    "IdKadar": 17,
    "Kadar": 75.00,
    "BeratJenis": 14.94,
    "Purity": 18,
    "KadarLokal": 74.00,
    "KadarEkspor": 75.10
  },
  {
    "IdCap": 156,
    "Ukuran": 0.00,
    "NamaCap": "750 + Italy + AS",
    "Gambar": null,
    "DisplayCap": "750 + Italy + AS - 0.00",
    "IdKadar": 17,
    "Kadar": 75.00,
    "BeratJenis": 14.94,
    "Purity": 18,
    "KadarLokal": 74.00,
    "KadarEkspor": 75.10
  },
  {
    "IdCap": 107,
    "Ukuran": 0.00,
    "NamaCap": "K_18_LOGO (FG)",
    "Gambar": "Z:\\IT\\IT2 (Wiliam)\\RND\\Gambar Cap\\K 18 + LOGO (FG)-0.jpg",
    "DisplayCap": "K_18_LOGO (FG) - 0.00",
    "IdKadar": 17,
    "Kadar": 75.00,
    "BeratJenis": 14.94,
    "Purity": 18,
    "KadarLokal": 74.00,
    "KadarEkspor": 75.10
  },
  {
    "IdCap": 127,
    "Ukuran": 0.00,
    "NamaCap": "18KT",
    "Gambar": null,
    "DisplayCap": "18KT - 0.00",
    "IdKadar": 17,
    "Kadar": 75.00,
    "BeratJenis": 14.94,
    "Purity": 18,
    "KadarLokal": 74.00,
    "KadarEkspor": 75.10
  },
  {
    "IdCap": 122,
    "Ukuran": 0.00,
    "NamaCap": "TANPA CAP ",
    "Gambar": null,
    "DisplayCap": "TANPA CAP  - 0.00",
    "IdKadar": 17,
    "Kadar": 75.00,
    "BeratJenis": 14.94,
    "Purity": 18,
    "KadarLokal": 74.00,
    "KadarEkspor": 75.10
  },
  {
    "IdCap": 132,
    "Ukuran": 0.00,
    "NamaCap": "AU750 + KEER ",
    "Gambar": null,
    "DisplayCap": "AU750 + KEER  - 0.00",
    "IdKadar": 17,
    "Kadar": 75.00,
    "BeratJenis": 14.94,
    "Purity": 18,
    "KadarLokal": 74.00,
    "KadarEkspor": 75.10
  },
  {
    "IdCap": 133,
    "Ukuran": 0.00,
    "NamaCap": "750 + ITALY_AA",
    "Gambar": null,
    "DisplayCap": "750 + ITALY_AA - 0.00",
    "IdKadar": 17,
    "Kadar": 75.00,
    "BeratJenis": 14.94,
    "Purity": 18,
    "KadarLokal": 74.00,
    "KadarEkspor": 75.10
  },
  {
    "IdCap": 134,
    "Ukuran": 0.00,
    "NamaCap": "750 + ITALY + LOGO (itat)",
    "Gambar": "Z:\\IT\\IT2 (Wiliam)\\RND\\Gambar Cap\\750 + ITALY + LOGO (ITAT)-0.jpg",
    "DisplayCap": "750 + ITALY + LOGO (itat) - 0.00",
    "IdKadar": 17,
    "Kadar": 75.00,
    "BeratJenis": 14.94,
    "Purity": 18,
    "KadarLokal": 74.00,
    "KadarEkspor": 75.10
  },
  {
    "IdCap": 135,
    "Ukuran": 0.00,
    "NamaCap": "RCI+18K+INDONESIA",
    "Gambar": null,
    "DisplayCap": "RCI+18K+INDONESIA - 0.00",
    "IdKadar": 17,
    "Kadar": 75.00,
    "BeratJenis": 14.94,
    "Purity": 18,
    "KadarLokal": 74.00,
    "KadarEkspor": 75.10
  },
  {
    "IdCap": 136,
    "Ukuran": 0.00,
    "NamaCap": "750_LOGO (THE PALACE)",
    "Gambar": "Z:\\IT\\IT2 (Wiliam)\\RND\\Gambar Cap\\750_LOGO (THE PALACE)-0.jpg",
    "DisplayCap": "750_LOGO (THE PALACE) - 0.00",
    "IdKadar": 17,
    "Kadar": 75.00,
    "BeratJenis": 14.94,
    "Purity": 18,
    "KadarLokal": 74.00,
    "KadarEkspor": 75.10
  },
  {
    "IdCap": 139,
    "Ukuran": 0.00,
    "NamaCap": "750_ITALY_C_( UKURAN CINCIN ) ",
    "Gambar": null,
    "DisplayCap": "750_ITALY_C_( UKURAN CINCIN )  - 0.00",
    "IdKadar": 17,
    "Kadar": 75.00,
    "BeratJenis": 14.94,
    "Purity": 18,
    "KadarLokal": 74.00,
    "KadarEkspor": 75.10
  },
  {
    "IdCap": 141,
    "Ukuran": 0.00,
    "NamaCap": "750 + Indonesia+ LOGO ( Lotus)",
    "Gambar": "Z:\\IT\\IT2 (Wiliam)\\RND\\Gambar Cap\\750 + INDONESIA+ LOGO ( LOTUS)-0.jpg",
    "DisplayCap": "750 + Indonesia+ LOGO ( Lotus) - 0.00",
    "IdKadar": 17,
    "Kadar": 75.00,
    "BeratJenis": 14.94,
    "Purity": 18,
    "KadarLokal": 74.00,
    "KadarEkspor": 75.10
  },
  {
    "IdCap": 175,
    "Ukuran": 0.00,
    "NamaCap": "18K_FJ",
    "Gambar": null,
    "DisplayCap": "18K_FJ - 0.00",
    "IdKadar": 17,
    "Kadar": 75.00,
    "BeratJenis": 14.94,
    "Purity": 18,
    "KadarLokal": 74.00,
    "KadarEkspor": 75.10
  },
  {
    "IdCap": 170,
    "Ukuran": 0.00,
    "NamaCap": "Au750 + U",
    "Gambar": null,
    "DisplayCap": "Au750 + U - 0.00",
    "IdKadar": 17,
    "Kadar": 75.00,
    "BeratJenis": 14.94,
    "Purity": 18,
    "KadarLokal": 74.00,
    "KadarEkspor": 75.10
  },
  {
    "IdCap": 171,
    "Ukuran": 0.00,
    "NamaCap": "AU750 + LOGO( itat )",
    "Gambar": "\\\\192.168.0.2\\My Data Places\\IT\\IT2 (Wiliam)\\RND\\Gambar Cap\\AU750 + LOGO( ITAT )-0.jpg",
    "DisplayCap": "AU750 + LOGO( itat ) - 0.00",
    "IdKadar": 17,
    "Kadar": 75.00,
    "BeratJenis": 14.94,
    "Purity": 18,
    "KadarLokal": 74.00,
    "KadarEkspor": 75.10
  },
  {
    "IdCap": 160,
    "Ukuran": 0.00,
    "NamaCap": "Au750 + Logo (SH)",
    "Gambar": "Z:\\IT\\IT2 (Wiliam)\\RND\\Gambar Cap\\AU750 + LOGO (SH)-0.jpg",
    "DisplayCap": "Au750 + Logo (SH) - 0.00",
    "IdKadar": 17,
    "Kadar": 75.00,
    "BeratJenis": 14.94,
    "Purity": 18,
    "KadarLokal": 74.00,
    "KadarEkspor": 75.10
  },
  {
    "IdCap": 185,
    "Ukuran": 0.00,
    "NamaCap": "18KT + ADLR",
    "Gambar": null,
    "DisplayCap": "18KT + ADLR - 0.00",
    "IdKadar": 17,
    "Kadar": 75.00,
    "BeratJenis": 14.94,
    "Purity": 18,
    "KadarLokal": 74.00,
    "KadarEkspor": 75.10
  },
  {
    "IdCap": 192,
    "Ukuran": 0.00,
    "NamaCap": "LOGO (FOT) posisi di atas koin + Au750 (posisi di bawah)",
    "Gambar": null,
    "DisplayCap": "LOGO (FOT) posisi di atas koin + Au750 (posisi di bawah) - 0.00",
    "IdKadar": 17,
    "Kadar": 75.00,
    "BeratJenis": 14.94,
    "Purity": 18,
    "KadarLokal": 74.00,
    "KadarEkspor": 75.10
  },
  {
    "IdCap": 194,
    "Ukuran": 0.00,
    "NamaCap": "750 + LOGO (Lotus) + INDONESIA",
    "Gambar": null,
    "DisplayCap": "750 + LOGO (Lotus) + INDONESIA - 0.00",
    "IdKadar": 17,
    "Kadar": 75.00,
    "BeratJenis": 14.94,
    "Purity": 18,
    "KadarLokal": 74.00,
    "KadarEkspor": 75.10
  },
  {
    "IdCap": 196,
    "Ukuran": 0.00,
    "NamaCap": "Au750 + Italy + M",
    "Gambar": null,
    "DisplayCap": "Au750 + Italy + M - 0.00",
    "IdKadar": 17,
    "Kadar": 75.00,
    "BeratJenis": 14.94,
    "Purity": 18,
    "KadarLokal": 74.00,
    "KadarEkspor": 75.10
  },
  {
    "IdCap": 205,
    "Ukuran": 0.00,
    "NamaCap": "750 + LP",
    "Gambar": null,
    "DisplayCap": "750 + LP - 0.00",
    "IdKadar": 17,
    "Kadar": 75.00,
    "BeratJenis": 14.94,
    "Purity": 18,
    "KadarLokal": 74.00,
    "KadarEkspor": 75.10
  },
  {
    "IdCap": 201,
    "Ukuran": 0.00,
    "NamaCap": "F&CO_750",
    "Gambar": null,
    "DisplayCap": "F&CO_750 - 0.00",
    "IdKadar": 17,
    "Kadar": 75.00,
    "BeratJenis": 14.94,
    "Purity": 18,
    "KadarLokal": 74.00,
    "KadarEkspor": 75.10
  },
  {
    "IdCap": 199,
    "Ukuran": 0.00,
    "NamaCap": "750 + RJ",
    "Gambar": null,
    "DisplayCap": "750 + RJ - 0.00",
    "IdKadar": 17,
    "Kadar": 75.00,
    "BeratJenis": 14.94,
    "Purity": 18,
    "KadarLokal": 74.00,
    "KadarEkspor": 75.10
  },
  {
    "IdCap": 193,
    "Ukuran": 0.00,
    "NamaCap": "850 + Frank_&_Co.",
    "Gambar": null,
    "DisplayCap": "850 + Frank_&_Co. - 0.00",
    "IdKadar": 20,
    "Kadar": 85.00,
    "BeratJenis": 16.45,
    "Purity": 20,
    "KadarLokal": 85.00,
    "KadarEkspor": 85.10
  },
  {
    "IdCap": 101,
    "Ukuran": 0.00,
    "NamaCap": "875",
    "Gambar": null,
    "DisplayCap": "875 - 0.00",
    "IdKadar": 21,
    "Kadar": 86.00,
    "BeratJenis": 16.50,
    "Purity": 20,
    "KadarLokal": 86.00,
    "KadarEkspor": 86.00
  },
  {
    "IdCap": 102,
    "Ukuran": 0.00,
    "NamaCap": "SWISSGOLD + 875",
    "Gambar": null,
    "DisplayCap": "SWISSGOLD + 875 - 0.00",
    "IdKadar": 21,
    "Kadar": 86.00,
    "BeratJenis": 16.50,
    "Purity": 20,
    "KadarLokal": 86.00,
    "KadarEkspor": 86.00
  },
  {
    "IdCap": 17,
    "Ukuran": 0.60,
    "NamaCap": "LLP + 875",
    "Gambar": "Z:\\IT\\IT2 (Wiliam)\\RND\\Gambar Cap\\875-0.6.jpg",
    "DisplayCap": "LLP + 875 - 0.60",
    "IdKadar": 21,
    "Kadar": 86.00,
    "BeratJenis": 16.50,
    "Purity": 20,
    "KadarLokal": 86.00,
    "KadarEkspor": 86.00
  },
  {
    "IdCap": 78,
    "Ukuran": 0.60,
    "NamaCap": "916",
    "Gambar": null,
    "DisplayCap": "916 - 0.60",
    "IdKadar": 24,
    "Kadar": 92.00,
    "BeratJenis": 17.70,
    "Purity": 22,
    "KadarLokal": 92.00,
    "KadarEkspor": 92.00
  },
  {
    "IdCap": 105,
    "Ukuran": 0.60,
    "NamaCap": "ITALY + 916",
    "Gambar": null,
    "DisplayCap": "ITALY + 916 - 0.60",
    "IdKadar": 24,
    "Kadar": 92.00,
    "BeratJenis": 17.70,
    "Purity": 22,
    "KadarLokal": 92.00,
    "KadarEkspor": 92.00
  },
  {
    "IdCap": 126,
    "Ukuran": 0.00,
    "NamaCap": "22K_LLP",
    "Gambar": "Z:\\IT\\IT2 (Wiliam)\\RND\\Gambar Cap\\22K_LLP-0.jpg",
    "DisplayCap": "22K_LLP - 0.00",
    "IdKadar": 24,
    "Kadar": 92.00,
    "BeratJenis": 17.70,
    "Purity": 22,
    "KadarLokal": 92.00,
    "KadarEkspor": 92.00
  },
  {
    "IdCap": 159,
    "Ukuran": 0.00,
    "NamaCap": "JMA + Au916",
    "Gambar": null,
    "DisplayCap": "JMA + Au916 - 0.00",
    "IdKadar": 24,
    "Kadar": 92.00,
    "BeratJenis": 17.70,
    "Purity": 22,
    "KadarLokal": 92.00,
    "KadarEkspor": 92.00
  },
  {
    "IdCap": 151,
    "Ukuran": 0.00,
    "NamaCap": "Au916",
    "Gambar": null,
    "DisplayCap": "Au916 - 0.00",
    "IdKadar": 24,
    "Kadar": 92.00,
    "BeratJenis": 17.70,
    "Purity": 22,
    "KadarLokal": 92.00,
    "KadarEkspor": 92.00
  },
  {
    "IdCap": 197,
    "Ukuran": 0.00,
    "NamaCap": "SM_22",
    "Gambar": null,
    "DisplayCap": "SM_22 - 0.00",
    "IdKadar": 24,
    "Kadar": 92.00,
    "BeratJenis": 17.70,
    "Purity": 22,
    "KadarLokal": 92.00,
    "KadarEkspor": 92.00
  },
  {
    "IdCap": 188,
    "Ukuran": 0.00,
    "NamaCap": "Au916_Z",
    "Gambar": null,
    "DisplayCap": "Au916_Z - 0.00",
    "IdKadar": 24,
    "Kadar": 92.00,
    "BeratJenis": 17.70,
    "Purity": 22,
    "KadarLokal": 92.00,
    "KadarEkspor": 92.00
  },
  {
    "IdCap": 189,
    "Ukuran": 0.00,
    "NamaCap": "L + Au916",
    "Gambar": null,
    "DisplayCap": "L + Au916 - 0.00",
    "IdKadar": 24,
    "Kadar": 92.00,
    "BeratJenis": 17.70,
    "Purity": 22,
    "KadarLokal": 92.00,
    "KadarEkspor": 92.00
  },
  {
    "IdCap": 166,
    "Ukuran": 0.00,
    "NamaCap": "Au916 + LOGO (YH)",
    "Gambar": "Z:\\IT\\IT2 (Wiliam)\\RND\\Gambar Cap\\AU916 + LOGO (YH)-0.jpg",
    "DisplayCap": "Au916 + LOGO (YH) - 0.00",
    "IdKadar": 24,
    "Kadar": 92.00,
    "BeratJenis": 17.70,
    "Purity": 22,
    "KadarLokal": 92.00,
    "KadarEkspor": 92.00
  },
  {
    "IdCap": 173,
    "Ukuran": 0.00,
    "NamaCap": "22K",
    "Gambar": null,
    "DisplayCap": "22K - 0.00",
    "IdKadar": 24,
    "Kadar": 92.00,
    "BeratJenis": 17.70,
    "Purity": 22,
    "KadarLokal": 92.00,
    "KadarEkspor": 92.00
  },
  {
    "IdCap": 178,
    "Ukuran": 0.00,
    "NamaCap": "JMA_4 + Au916",
    "Gambar": null,
    "DisplayCap": "JMA_4 + Au916 - 0.00",
    "IdKadar": 24,
    "Kadar": 92.00,
    "BeratJenis": 17.70,
    "Purity": 22,
    "KadarLokal": 92.00,
    "KadarEkspor": 92.00
  },
  {
    "IdCap": 206,
    "Ukuran": 0.00,
    "NamaCap": "MPL + 916",
    "Gambar": null,
    "DisplayCap": "MPL + 916 - 0.00",
    "IdKadar": 24,
    "Kadar": 92.00,
    "BeratJenis": 17.70,
    "Purity": 22,
    "KadarLokal": 92.00,
    "KadarEkspor": 92.00
  },
  {
    "IdCap": 207,
    "Ukuran": 0.00,
    "NamaCap": "916 + SONA",
    "Gambar": null,
    "DisplayCap": "916 + SONA - 0.00",
    "IdKadar": 24,
    "Kadar": 92.00,
    "BeratJenis": 17.70,
    "Purity": 22,
    "KadarLokal": 92.00,
    "KadarEkspor": 92.00
  },
  {
    "IdCap": 112,
    "Ukuran": 0.00,
    "NamaCap": "8K_INDONESIA + LOGO (DASAN)",
    "Gambar": "Z:\\IT\\IT2 (Wiliam)\\RND\\Gambar Cap\\LOGO(DASAN)+ 8K ID-0.jpg",
    "DisplayCap": "8K_INDONESIA + LOGO (DASAN) - 0.00",
    "IdKadar": 25,
    "Kadar": 83.00,
    "BeratJenis": 0.00,
    "Purity": 0,
    "KadarLokal": 0.00,
    "KadarEkspor": 0.00
  },
  {
    "IdCap": 163,
    "Ukuran": 0.00,
    "NamaCap": "21K",
    "Gambar": null,
    "DisplayCap": "21K - 0.00",
    "IdKadar": 26,
    "Kadar": 87.00,
    "BeratJenis": 16.85,
    "Purity": 21,
    "KadarLokal": 87.60,
    "KadarEkspor": 87.60
  }
]