[
  {
    "IdKadar": 8,
    "Kadar": 30.00,
    "BeratJenis": 10.43,
    "Purity": 7,
    "KadarLokal": 28.00,
    "KadarEkspor": 30.00,
    "KadarKhusus": 0.00
  },
  {
    "IdKadar": 10,
    "Kadar": 38.00,
    "BeratJenis": 11.15,
    "Purity": 9,
    "KadarLokal": 37.00,
    "KadarEkspor": 38.00,
    "KadarKhusus": 38.00
  },
  {
    "IdKadar": 11,
    "Kadar": 41.00,
    "BeratJenis": 11.45,
    "Purity": 10,
    "KadarLokal": 41.00,
    "KadarEkspor": 42.00,
    "KadarKhusus": 0.00
  },
  {
    "IdKadar": 12,
    "Kadar": 45.00,
    "BeratJenis": 11.75,
    "Purity": 10,
    "KadarLokal": 45.00,
    "KadarEkspor": 45.00,
    "KadarKhusus": 0.00
  },
  {
    "IdKadar": 13,
    "Kadar": 58.00,
    "BeratJenis": 13.00,
    "Purity": 14,
    "KadarLokal": 58.00,
    "KadarEkspor": 58.60,
    "KadarKhusus": 0.00
  },
  {
    "IdKadar": 14,
    "Kadar": 67.00,
    "BeratJenis": 13.85,
    "Purity": 16,
    "KadarLokal": 67.00,
    "KadarEkspor": 67.00,
    "KadarKhusus": 0.00
  },
  {
    "IdKadar": 15,
    "Kadar": 70.00,
    "BeratJenis": 14.10,
    "Purity": 16,
    "KadarLokal": 69.00,
    "KadarEkspor": 70.00,
    "KadarKhusus": 0.00
  },
  {
    "IdKadar": 17,
    "Kadar": 75.00,
    "BeratJenis": 14.94,
    "Purity": 18,
    "KadarLokal": 74.00,
    "KadarEkspor": 75.10,
    "KadarKhusus": 75.10
  },
  {
    "IdKadar": 18,
    "Kadar": 78.00,
    "BeratJenis": 15.30,
    "Purity": 18,
    "KadarLokal": 78.00,
    "KadarEkspor": 78.00,
    "KadarKhusus": 0.00
  },
  {
    "IdKadar": 19,
    "Kadar": 82.00,
    "BeratJenis": 15.90,
    "Purity": 19,
    "KadarLokal": 82.00,
    "KadarEkspor": 82.00,
    "KadarKhusus": 0.00
  },
  {
    "IdKadar": 25,
    "Kadar": 83.00,
    "BeratJenis": 0.00,
    "Purity": 0,
    "KadarLokal": 0.00,
    "KadarEkspor": 0.00,
    "KadarKhusus": 0.00
  },
  {
    "IdKadar": 20,
    "Kadar": 85.00,
    "BeratJenis": 16.45,
    "Purity": 20,
    "KadarLokal": 85.00,
    "KadarEkspor": 85.10,
    "KadarKhusus": 0.00
  },
  {
    "IdKadar": 21,
    "Kadar": 86.00,
    "BeratJenis": 16.50,
    "Purity": 20,
    "KadarLokal": 86.00,
    "KadarEkspor": 86.00,
    "KadarKhusus": 0.00
  },
  {
    "IdKadar": 26,
    "Kadar": 87.00,
    "BeratJenis": 16.85,
    "Purity": 21,
    "KadarLokal": 87.60,
    "KadarEkspor": 87.60,
    "KadarKhusus": 0.00
  },
  {
    "IdKadar": 23,
    "Kadar": 90.00,
    "BeratJenis": 17.35,
    "Purity": 21,
    "KadarLokal": 90.00,
    "KadarEkspor": 90.00,
    "KadarKhusus": 0.00
  },
  {
    "IdKadar": 24,
    "Kadar": 92.00,
    "BeratJenis": 17.70,
    "Purity": 22,
    "KadarLokal": 92.00,
    "KadarEkspor": 92.00,
    "KadarKhusus": 0.00
  }
]