[
  {
    "IdWarnaBJ": 137,
    "JumlahWarna": 1,
    "NamaWarna": "",
    "IdGrupWarna": 1,
    "NamaGrupWarna": "1 WARNA",
    "IdKategoriWarna": 1,
    "NamaKategoriWarna": "AK",
    "IdGrupWarnaMarketing": 1,
    "NamaGrupWarnaMarketing": "1 WARNA"
  },
  {
    "IdWarnaBJ": 80,
    "JumlahWarna": 3,
    "NamaWarna": "3 COLOUR ",
    "IdGrupWarna": 1,
    "NamaGrupWarna": "1 WARNA",
    "IdKategoriWarna": 1,
    "NamaKategoriWarna": "AK",
    "IdGrupWarnaMarketing": 4,
    "NamaGrupWarnaMarketing": "3 WARNA"
  },
  {
    "IdWarnaBJ": 21,
    "JumlahWarna": 1,
    "NamaWarna": "BLACK",
    "IdGrupWarna": 1,
    "NamaGrupWarna": "1 WARNA",
    "IdKategoriWarna": 2,
    "NamaKategoriWarna": "AP",
    "IdGrupWarnaMarketing": 2,
    "NamaGrupWarnaMarketing": "AP"
  },
  {
    "IdWarnaBJ": 52,
    "JumlahWarna": 2,
    "NamaWarna": "BLACK + WG",
    "IdGrupWarna": 1,
    "NamaGrupWarna": "1 WARNA",
    "IdKategoriWarna": 2,
    "NamaKategoriWarna": "AP",
    "IdGrupWarnaMarketing": 3,
    "NamaGrupWarnaMarketing": "2 WARNA"
  },
  {
    "IdWarnaBJ": 18,
    "JumlahWarna": 1,
    "NamaWarna": "CHROM KUNING 24K",
    "IdGrupWarna": 1,
    "NamaGrupWarna": "1 WARNA",
    "IdKategoriWarna": 1,
    "NamaKategoriWarna": "AK",
    "IdGrupWarnaMarketing": 1,
    "NamaGrupWarnaMarketing": "1 WARNA"
  },
  {
    "IdWarnaBJ": 67,
    "JumlahWarna": 1,
    "NamaWarna": "CHROM KUNING VAR. CAT",
    "IdGrupWarna": 1,
    "NamaGrupWarna": "1 WARNA",
    "IdKategoriWarna": 1,
    "NamaKategoriWarna": "AK",
    "IdGrupWarnaMarketing": 1,
    "NamaGrupWarnaMarketing": "1 WARNA"
  },
  {
    "IdWarnaBJ": 63,
    "JumlahWarna": 1,
    "NamaWarna": "CHROM MERAH + CATAFOR",
    "IdGrupWarna": 1,
    "NamaGrupWarna": "1 WARNA",
    "IdKategoriWarna": 1,
    "NamaKategoriWarna": "AK",
    "IdGrupWarnaMarketing": 1,
    "NamaGrupWarnaMarketing": "1 WARNA"
  },
  {
    "IdWarnaBJ": 60,
    "JumlahWarna": 1,
    "NamaWarna": "CHROM MERAH VAR. PUTIH + CATAFOR",
    "IdGrupWarna": 1,
    "NamaGrupWarna": "1 WARNA",
    "IdKategoriWarna": 1,
    "NamaKategoriWarna": "AK",
    "IdGrupWarnaMarketing": 3,
    "NamaGrupWarnaMarketing": "2 WARNA"
  },
  {
    "IdWarnaBJ": 49,
    "JumlahWarna": 1,
    "NamaWarna": "CHROM MERAH, VAR CAT",
    "IdGrupWarna": 1,
    "NamaGrupWarna": "1 WARNA",
    "IdKategoriWarna": 1,
    "NamaKategoriWarna": "AK",
    "IdGrupWarnaMarketing": 1,
    "NamaGrupWarnaMarketing": "1 WARNA"
  },
  {
    "IdWarnaBJ": 23,
    "JumlahWarna": 2,
    "NamaWarna": "CHROM MERAH, VAR PUTIH",
    "IdGrupWarna": 1,
    "NamaGrupWarna": "1 WARNA",
    "IdKategoriWarna": 1,
    "NamaKategoriWarna": "AK",
    "IdGrupWarnaMarketing": 3,
    "NamaGrupWarnaMarketing": "2 WARNA"
  },
  {
    "IdWarnaBJ": 46,
    "JumlahWarna": 1,
    "NamaWarna": "CHROM MERAH, VAR PUTIH, VAR CAT",
    "IdGrupWarna": 1,
    "NamaGrupWarna": "1 WARNA",
    "IdKategoriWarna": 1,
    "NamaKategoriWarna": "AK",
    "IdGrupWarnaMarketing": 1,
    "NamaGrupWarnaMarketing": "1 WARNA"
  },
  {
    "IdWarnaBJ": 70,
    "JumlahWarna": 1,
    "NamaWarna": "CHROM PUTIH VAR. CAT",
    "IdGrupWarna": 1,
    "NamaGrupWarna": "1 WARNA",
    "IdKategoriWarna": 1,
    "NamaKategoriWarna": "AK",
    "IdGrupWarnaMarketing": 1,
    "NamaGrupWarnaMarketing": "1 WARNA"
  },
  {
    "IdWarnaBJ": 120,
    "JumlahWarna": 1,
    "NamaWarna": "ITALY (USA)",
    "IdGrupWarna": 1,
    "NamaGrupWarna": "1 WARNA",
    "IdKategoriWarna": 1,
    "NamaKategoriWarna": "AK",
    "IdGrupWarnaMarketing": 1,
    "NamaGrupWarnaMarketing": "1 WARNA"
  },
  {
    "IdWarnaBJ": 55,
    "JumlahWarna": 2,
    "NamaWarna": "KUNING VARIASI PUTIH",
    "IdGrupWarna": 1,
    "NamaGrupWarna": "1 WARNA",
    "IdKategoriWarna": 1,
    "NamaKategoriWarna": "AK",
    "IdGrupWarnaMarketing": 3,
    "NamaGrupWarnaMarketing": "2 WARNA"
  },
  {
    "IdWarnaBJ": 31,
    "JumlahWarna": 1,
    "NamaWarna": "LIHAT KETERANGAN",
    "IdGrupWarna": 1,
    "NamaGrupWarna": "1 WARNA",
    "IdKategoriWarna": 1,
    "NamaKategoriWarna": "AK",
    "IdGrupWarnaMarketing": 1,
    "NamaGrupWarnaMarketing": "1 WARNA"
  },
  {
    "IdWarnaBJ": 15,
    "JumlahWarna": 1,
    "NamaWarna": "MERAH",
    "IdGrupWarna": 1,
    "NamaGrupWarna": "1 WARNA",
    "IdKategoriWarna": 1,
    "NamaKategoriWarna": "AK",
    "IdGrupWarnaMarketing": 1,
    "NamaGrupWarnaMarketing": "1 WARNA"
  },
  {
    "IdWarnaBJ": 115,
    "JumlahWarna": 2,
    "NamaWarna": "PAVE ( YG ITALY DB + WG)",
    "IdGrupWarna": 1,
    "NamaGrupWarna": "1 WARNA",
    "IdKategoriWarna": 1,
    "NamaKategoriWarna": "AK",
    "IdGrupWarnaMarketing": 3,
    "NamaGrupWarnaMarketing": "2 WARNA"
  },
  {
    "IdWarnaBJ": 8,
    "JumlahWarna": 2,
    "NamaWarna": "PAVE (RG +WG)",
    "IdGrupWarna": 1,
    "NamaGrupWarna": "1 WARNA",
    "IdKategoriWarna": 3,
    "NamaKategoriWarna": "AM",
    "IdGrupWarnaMarketing": 3,
    "NamaGrupWarnaMarketing": "2 WARNA"
  },
  {
    "IdWarnaBJ": 82,
    "JumlahWarna": 2,
    "NamaWarna": "PAVE (YG 24K + WG)",
    "IdGrupWarna": 1,
    "NamaGrupWarna": "1 WARNA",
    "IdKategoriWarna": 1,
    "NamaKategoriWarna": "AK",
    "IdGrupWarnaMarketing": 3,
    "NamaGrupWarnaMarketing": "2 WARNA"
  },
  {
    "IdWarnaBJ": 83,
    "JumlahWarna": 2,
    "NamaWarna": "PAVE (YG ITALY HK + WG)",
    "IdGrupWarna": 1,
    "NamaGrupWarna": "1 WARNA",
    "IdKategoriWarna": 1,
    "NamaKategoriWarna": "AK",
    "IdGrupWarnaMarketing": 3,
    "NamaGrupWarnaMarketing": "2 WARNA"
  },
  {
    "IdWarnaBJ": 143,
    "JumlahWarna": 1,
    "NamaWarna": "PAVE(ITALY USA + WG)",
    "IdGrupWarna": 1,
    "NamaGrupWarna": "1 WARNA",
    "IdKategoriWarna": 1,
    "NamaKategoriWarna": "AK",
    "IdGrupWarnaMarketing": 1,
    "NamaGrupWarnaMarketing": "1 WARNA"
  },
  {
    "IdWarnaBJ": 1,
    "JumlahWarna": 1,
    "NamaWarna": "RG",
    "IdGrupWarna": 1,
    "NamaGrupWarna": "1 WARNA",
    "IdKategoriWarna": 3,
    "NamaKategoriWarna": "AM",
    "IdGrupWarnaMarketing": 1,
    "NamaGrupWarnaMarketing": "1 WARNA"
  },
  {
    "IdWarnaBJ": 4,
    "JumlahWarna": 2,
    "NamaWarna": "RG + WG",
    "IdGrupWarna": 1,
    "NamaGrupWarna": "1 WARNA",
    "IdKategoriWarna": 3,
    "NamaKategoriWarna": "AM",
    "IdGrupWarnaMarketing": 3,
    "NamaGrupWarnaMarketing": "2 WARNA"
  },
  {
    "IdWarnaBJ": 59,
    "JumlahWarna": 2,
    "NamaWarna": "RG + WG",
    "IdGrupWarna": 1,
    "NamaGrupWarna": "1 WARNA",
    "IdKategoriWarna": 3,
    "NamaKategoriWarna": "AM",
    "IdGrupWarnaMarketing": 3,
    "NamaGrupWarnaMarketing": "2 WARNA"
  },
  {
    "IdWarnaBJ": 74,
    "JumlahWarna": 1,
    "NamaWarna": "TANPA CHROM (WARNA ALLOY DASAR KUNING)",
    "IdGrupWarna": 1,
    "NamaGrupWarna": "1 WARNA",
    "IdKategoriWarna": 1,
    "NamaKategoriWarna": "AK",
    "IdGrupWarnaMarketing": 1,
    "NamaGrupWarnaMarketing": "1 WARNA"
  },
  {
    "IdWarnaBJ": 132,
    "JumlahWarna": 1,
    "NamaWarna": "TANPA CHROME (WARNA ALLOY DASAR MERAH)",
    "IdGrupWarna": 1,
    "NamaGrupWarna": "1 WARNA",
    "IdKategoriWarna": 3,
    "NamaKategoriWarna": "AM",
    "IdGrupWarnaMarketing": 1,
    "NamaGrupWarnaMarketing": "1 WARNA"
  },
  {
    "IdWarnaBJ": 105,
    "JumlahWarna": 1,
    "NamaWarna": "TANPA CHROME (WARNA ALLOY DASAR PUTIH)",
    "IdGrupWarna": 1,
    "NamaGrupWarna": "1 WARNA",
    "IdKategoriWarna": 2,
    "NamaKategoriWarna": "AP",
    "IdGrupWarnaMarketing": 1,
    "NamaGrupWarnaMarketing": "1 WARNA"
  },
  {
    "IdWarnaBJ": 2,
    "JumlahWarna": 1,
    "NamaWarna": "WG",
    "IdGrupWarna": 1,
    "NamaGrupWarna": "1 WARNA",
    "IdKategoriWarna": 2,
    "NamaKategoriWarna": "AP",
    "IdGrupWarnaMarketing": 2,
    "NamaGrupWarnaMarketing": "AP"
  },
  {
    "IdWarnaBJ": 111,
    "JumlahWarna": 2,
    "NamaWarna": "WG + RG",
    "IdGrupWarna": 1,
    "NamaGrupWarna": "1 WARNA",
    "IdKategoriWarna": 3,
    "NamaKategoriWarna": "AM",
    "IdGrupWarnaMarketing": 3,
    "NamaGrupWarnaMarketing": "2 WARNA"
  },
  {
    "IdWarnaBJ": 119,
    "JumlahWarna": 1,
    "NamaWarna": "YG (ITALY USA)",
    "IdGrupWarna": 1,
    "NamaGrupWarna": "1 WARNA",
    "IdKategoriWarna": 1,
    "NamaKategoriWarna": "AK",
    "IdGrupWarnaMarketing": 1,
    "NamaGrupWarnaMarketing": "1 WARNA"
  },
  {
    "IdWarnaBJ": 127,
    "JumlahWarna": 1,
    "NamaWarna": "YG (ITALY USA)",
    "IdGrupWarna": 1,
    "NamaGrupWarna": "1 WARNA",
    "IdKategoriWarna": 1,
    "NamaKategoriWarna": "AK",
    "IdGrupWarnaMarketing": 1,
    "NamaGrupWarnaMarketing": "1 WARNA"
  },
  {
    "IdWarnaBJ": 123,
    "JumlahWarna": 1,
    "NamaWarna": "YG (ITALY USA) + WG",
    "IdGrupWarna": 1,
    "NamaGrupWarna": "1 WARNA",
    "IdKategoriWarna": 1,
    "NamaKategoriWarna": "AK",
    "IdGrupWarnaMarketing": 1,
    "NamaGrupWarnaMarketing": "1 WARNA"
  },
  {
    "IdWarnaBJ": 130,
    "JumlahWarna": 1,
    "NamaWarna": "YG (ITALY USA) +RG",
    "IdGrupWarna": 1,
    "NamaGrupWarna": "1 WARNA",
    "IdKategoriWarna": 1,
    "NamaKategoriWarna": "AK",
    "IdGrupWarnaMarketing": 1,
    "NamaGrupWarnaMarketing": "1 WARNA"
  },
  {
    "IdWarnaBJ": 3,
    "JumlahWarna": 1,
    "NamaWarna": "YG(24K)",
    "IdGrupWarna": 1,
    "NamaGrupWarna": "1 WARNA",
    "IdKategoriWarna": 1,
    "NamaKategoriWarna": "AK",
    "IdGrupWarnaMarketing": 1,
    "NamaGrupWarnaMarketing": "1 WARNA"
  },
  {
    "IdWarnaBJ": 87,
    "JumlahWarna": 2,
    "NamaWarna": "YG(24K) + RG",
    "IdGrupWarna": 1,
    "NamaGrupWarna": "1 WARNA",
    "IdKategoriWarna": 1,
    "NamaKategoriWarna": "AK",
    "IdGrupWarnaMarketing": 3,
    "NamaGrupWarnaMarketing": "2 WARNA"
  },
  {
    "IdWarnaBJ": 89,
    "JumlahWarna": 3,
    "NamaWarna": "YG(24K) + RG + WG",
    "IdGrupWarna": 1,
    "NamaGrupWarna": "1 WARNA",
    "IdKategoriWarna": 1,
    "NamaKategoriWarna": "AK",
    "IdGrupWarnaMarketing": 4,
    "NamaGrupWarnaMarketing": "3 WARNA"
  },
  {
    "IdWarnaBJ": 77,
    "JumlahWarna": 2,
    "NamaWarna": "YG(24K) + WG",
    "IdGrupWarna": 1,
    "NamaGrupWarna": "1 WARNA",
    "IdKategoriWarna": 1,
    "NamaKategoriWarna": "AK",
    "IdGrupWarnaMarketing": 3,
    "NamaGrupWarnaMarketing": "2 WARNA"
  },
  {
    "IdWarnaBJ": 5,
    "JumlahWarna": 1,
    "NamaWarna": "YG(ITALY DB)",
    "IdGrupWarna": 1,
    "NamaGrupWarna": "1 WARNA",
    "IdKategoriWarna": 1,
    "NamaKategoriWarna": "AK",
    "IdGrupWarnaMarketing": 1,
    "NamaGrupWarnaMarketing": "1 WARNA"
  },
  {
    "IdWarnaBJ": 101,
    "JumlahWarna": 1,
    "NamaWarna": "YG(ITALY DB) + RG",
    "IdGrupWarna": 1,
    "NamaGrupWarna": "1 WARNA",
    "IdKategoriWarna": 1,
    "NamaKategoriWarna": "AK",
    "IdGrupWarnaMarketing": 1,
    "NamaGrupWarnaMarketing": "1 WARNA"
  },
  {
    "IdWarnaBJ": 96,
    "JumlahWarna": 1,
    "NamaWarna": "YG(ITALY DB) + WG",
    "IdGrupWarna": 1,
    "NamaGrupWarna": "1 WARNA",
    "IdKategoriWarna": 1,
    "NamaKategoriWarna": "AK",
    "IdGrupWarnaMarketing": 1,
    "NamaGrupWarnaMarketing": "1 WARNA"
  },
  {
    "IdWarnaBJ": 138,
    "JumlahWarna": 3,
    "NamaWarna": "YG(ITALY DB)+WG+RG",
    "IdGrupWarna": 1,
    "NamaGrupWarna": "1 WARNA",
    "IdKategoriWarna": 1,
    "NamaKategoriWarna": "AK",
    "IdGrupWarnaMarketing": 1,
    "NamaGrupWarnaMarketing": "1 WARNA"
  },
  {
    "IdWarnaBJ": 25,
    "JumlahWarna": 1,
    "NamaWarna": "YG(ITALY HK)",
    "IdGrupWarna": 1,
    "NamaGrupWarna": "1 WARNA",
    "IdKategoriWarna": 1,
    "NamaKategoriWarna": "AK",
    "IdGrupWarnaMarketing": 1,
    "NamaGrupWarnaMarketing": "1 WARNA"
  },
  {
    "IdWarnaBJ": 99,
    "JumlahWarna": 2,
    "NamaWarna": "YG(ITALY HK) + RG",
    "IdGrupWarna": 1,
    "NamaGrupWarna": "1 WARNA",
    "IdKategoriWarna": 1,
    "NamaKategoriWarna": "AK",
    "IdGrupWarnaMarketing": 3,
    "NamaGrupWarnaMarketing": "2 WARNA"
  },
  {
    "IdWarnaBJ": 84,
    "JumlahWarna": 2,
    "NamaWarna": "YG(ITALY HK) + WG",
    "IdGrupWarna": 1,
    "NamaGrupWarna": "1 WARNA",
    "IdKategoriWarna": 1,
    "NamaKategoriWarna": "AK",
    "IdGrupWarnaMarketing": 3,
    "NamaGrupWarnaMarketing": "2 WARNA"
  },
  {
    "IdWarnaBJ": 140,
    "JumlahWarna": 3,
    "NamaWarna": "YG(ITALY HK)+WG+RG",
    "IdGrupWarna": 1,
    "NamaGrupWarna": "1 WARNA",
    "IdKategoriWarna": 1,
    "NamaKategoriWarna": "AK",
    "IdGrupWarnaMarketing": 1,
    "NamaGrupWarnaMarketing": "1 WARNA"
  },
  {
    "IdWarnaBJ": 141,
    "JumlahWarna": 1,
    "NamaWarna": "YG(ITALY USA) + WG + RG",
    "IdGrupWarna": 1,
    "NamaGrupWarna": "1 WARNA",
    "IdKategoriWarna": 1,
    "NamaKategoriWarna": "AK",
    "IdGrupWarnaMarketing": 1,
    "NamaGrupWarnaMarketing": "1 WARNA"
  }
]