{
    "ionic-plugin-keyboard": {
        "source": {
            "type": "registry",
            "id": "ionic-plugin-keyboard@~2.2.1"
        },
        "is_top_level": true,
        "variables": {}
    },
    "cordova-plugin-whitelist": {
        "source": {
            "type": "registry",
            "id": "cordova-plugin-whitelist@1.3.1"
        },
        "is_top_level": true,
        "variables": {}
    },
    "cordova-plugin-console": {
        "source": {
            "type": "registry",
            "id": "cordova-plugin-console@1.0.5"
        },
        "is_top_level": true,
        "variables": {}
    },
    "cordova-plugin-statusbar": {
        "source": {
            "type": "registry",
            "id": "cordova-plugin-statusbar@2.2.1"
        },
        "is_top_level": true,
        "variables": {}
    },
    "cordova-plugin-device": {
        "source": {
            "type": "registry",
            "id": "cordova-plugin-device@1.1.4"
        },
        "is_top_level": true,
        "variables": {}
    },
    "cordova-plugin-splashscreen": {
        "source": {
            "type": "registry",
            "id": "cordova-plugin-splashscreen@~4.0.1"
        },
        "is_top_level": true,
        "variables": {}
    },
    "cordova-plugin-geolocation": {
        "source": {
            "type": "registry",
            "id": "cordova-plugin-geolocation"
        },
        "is_top_level": true,
        "variables": {}
    },
    "cordova-plugin-compat": {
        "source": {
            "type": "registry",
            "id": "cordova-plugin-compat"
        },
        "is_top_level": false,
        "variables": {}
    },
    "cordova-sqlite-storage": {
        "source": {
            "type": "registry",
            "id": "cordova-sqlite-storage"
        },
        "is_top_level": true,
        "variables": {}
    },
    "cordova-plugin-email-composer": {
        "source": {
            "type": "registry",
            "id": "cordova-plugin-email-composer"
        },
        "is_top_level": true,
        "variables": {}
    },
    "cordova-plugin-email": {
        "source": {
            "type": "registry",
            "id": "cordova-plugin-email@^1.2.6"
        },
        "is_top_level": true,
        "variables": {}
    },
    "cordova-plugin-file": {
        "source": {
            "type": "registry",
            "id": "cordova-plugin-file"
        },
        "is_top_level": true,
        "variables": {}
    },
    "cordova-plugin-file-transfer": {
        "source": {
            "type": "registry",
            "id": "cordova-plugin-file-transfer"
        },
        "is_top_level": true,
        "variables": {}
    },
    "com.darktalker.cordova.screenshot": {
        "source": {
            "type": "registry",
            "id": "com.darktalker.cordova.screenshot"
        },
        "is_top_level": true,
        "variables": {}
    },
    "cordova-plugin-camera": {
        "source": {
            "type": "registry",
            "id": "cordova-plugin-camera"
        },
        "is_top_level": true,
        "variables": {}
    },
    "com.synconset.imagepicker": {
        "source": {
            "type": "registry",
            "id": "cordova-plugin-telerik-imagepicker@^2.1.8"
        },
        "is_top_level": true,
        "variables": {
            "PHOTO_LIBRARY_USAGE_DESCRIPTION": "test for personal use"
        }
    },
    "cordova-plugin-filechooser": {
        "source": {
            "type": "registry",
            "id": "cordova-plugin-filechooser"
        },
        "is_top_level": true,
        "variables": {}
    },
    "cordova-plugin-filepath": {
        "source": {
            "type": "registry",
            "id": "cordova-plugin-filepath"
        },
        "is_top_level": true,
        "variables": {}
    }
}