[
  {
    "IdCustomer": 59,
    "NamaCustomer": "",
    "KodeCustomer": "",
    "IdLokasi": 1,
    "NamaLokasi": "BANDUNG",
    "IsLokal": true,
    "LokasiDesc": "BANDUNG (Lokal)",
    "Alamat": "",
    "AlamatPengiriman": "",
    "Email": ""
  },
  {
    "IdCustomer": 57,
    "NamaCustomer": "",
    "KodeCustomer": "",
    "IdLokasi": 14,
    "NamaLokasi": "UJUNGPANDANG",
    "IsLokal": true,
    "LokasiDesc": "UJUNGPANDANG (Lokal)",
    "Alamat": "",
    "AlamatPengiriman": "",
    "Email": ""
  },
  {
    "IdCustomer": 162,
    "NamaCustomer": "ADLER JEWELLERY WHOLESALE INC.",
    "KodeCustomer": "ADL",
    "IdLokasi": 6,
    "NamaLokasi": "USA",
    "IsLokal": false,
    "LokasiDesc": "USA (Ekspor)",
    "Alamat": "21 Dundas Square, Suite #307\nToronto, ON   M5B 1B7\nCanada\nTel: (416) 365-0150",
    "AlamatPengiriman": "21 Dundas Square, Suite #307\nToronto, ON   M5B 1B7\nCanada\nTel: (416) 365-0150",
    "Email": "adlercanada@rogers.com"
  },
  {
    "IdCustomer": 3,
    "NamaCustomer": "ADONEES",
    "KodeCustomer": "ADN",
    "IdLokasi": 4,
    "NamaLokasi": "DUBAI",
    "IsLokal": false,
    "LokasiDesc": "DUBAI (Ekspor)",
    "Alamat": "",
    "AlamatPengiriman": "",
    "Email": ""
  },
  {
    "IdCustomer": 39,
    "NamaCustomer": "ADRIENNE",
    "KodeCustomer": "ADR",
    "IdLokasi": 6,
    "NamaLokasi": "USA",
    "IsLokal": false,
    "LokasiDesc": "USA (Ekspor)",
    "Alamat": "asnfdjokasbfkjasbjk\nasashnfkjasnkfljasnflkjas;ra\n\nlsdfngkjlsdngtklszanflka",
    "AlamatPengiriman": "asnfdjokasbfkjasbjk\nasashnfkjasnkfljasnflkjas;ra\n\nlsdfngkjlsdngtklszanflka",
    "Email": ""
  },
  {
    "IdCustomer": 154,
    "NamaCustomer": "AHMED MASHAYEKH JEWELLERY LLC",
    "KodeCustomer": "AHM",
    "IdLokasi": 4,
    "NamaLokasi": "DUBAI",
    "IsLokal": false,
    "LokasiDesc": "DUBAI (Ekspor)",
    "Alamat": "PO BOX NO 62585\nTHE GOLD CENTRE BUILDING\nMEZZANINE FLOOR ZONE #5\nOFFICE # M41, DEIRA GOLD SOUQ\nDUBAI, UNITED ARAB EMIRATES",
    "AlamatPengiriman": "PO BOX NO 62585\nTHE GOLD CENTRE BUILDING\nMEZZANINE FLOOR ZONE #5\nOFFICE # M41, DEIRA GOLD SOUQ\nDUBAI, UNITED ARAB EMIRATES",
    "Email": "amjewellery@eim.ae"
  },
  {
    "IdCustomer": 29,
    "NamaCustomer": "AL FATHINA",
    "KodeCustomer": "ALF",
    "IdLokasi": 4,
    "NamaLokasi": "DUBAI",
    "IsLokal": false,
    "LokasiDesc": "DUBAI (Ekspor)",
    "Alamat": "",
    "AlamatPengiriman": "",
    "Email": ""
  },
  {
    "IdCustomer": 170,
    "NamaCustomer": "ALIBABA.COM",
    "KodeCustomer": "ALI",
    "IdLokasi": 6,
    "NamaLokasi": "USA",
    "IsLokal": false,
    "LokasiDesc": "USA (Ekspor)",
    "Alamat": "Tergantung siapa pemesannya",
    "AlamatPengiriman": "Tergantung siapa pemesannya",
    "Email": ""
  },
  {
    "IdCustomer": 81,
    "NamaCustomer": "ANEKA",
    "KodeCustomer": "021",
    "IdLokasi": 9,
    "NamaLokasi": "JAWA ",
    "IsLokal": true,
    "LokasiDesc": "JAWA  (Lokal)",
    "Alamat": "",
    "AlamatPengiriman": "",
    "Email": ""
  },
  {
    "IdCustomer": 4,
    "NamaCustomer": "BAFLEH",
    "KodeCustomer": "BFH",
    "IdLokasi": 4,
    "NamaLokasi": "DUBAI",
    "IsLokal": false,
    "LokasiDesc": "DUBAI (Ekspor)",
    "Alamat": "",
    "AlamatPengiriman": "",
    "Email": ""
  },
  {
    "IdCustomer": 115,
    "NamaCustomer": "BAGONG",
    "KodeCustomer": "054",
    "IdLokasi": 9,
    "NamaLokasi": "JAWA ",
    "IsLokal": true,
    "LokasiDesc": "JAWA  (Lokal)",
    "Alamat": "",
    "AlamatPengiriman": "",
    "Email": ""
  },
  {
    "IdCustomer": 78,
    "NamaCustomer": "BAHAGIA",
    "KodeCustomer": "017",
    "IdLokasi": 13,
    "NamaLokasi": "KALIMANTAN",
    "IsLokal": true,
    "LokasiDesc": "KALIMANTAN (Lokal)",
    "Alamat": "",
    "AlamatPengiriman": "",
    "Email": ""
  },
  {
    "IdCustomer": 13,
    "NamaCustomer": "BALLY JEWELLERY",
    "KodeCustomer": "BJ",
    "IdLokasi": 5,
    "NamaLokasi": "HONGKONG",
    "IsLokal": false,
    "LokasiDesc": "HONGKONG (Ekspor)",
    "Alamat": "",
    "AlamatPengiriman": "",
    "Email": ""
  },
  {
    "IdCustomer": 66,
    "NamaCustomer": "BALONG GEDE",
    "KodeCustomer": "004",
    "IdLokasi": 1,
    "NamaLokasi": "BANDUNG",
    "IsLokal": true,
    "LokasiDesc": "BANDUNG (Lokal)",
    "Alamat": "",
    "AlamatPengiriman": "",
    "Email": ""
  },
  {
    "IdCustomer": 82,
    "NamaCustomer": "BERKAH",
    "KodeCustomer": "022",
    "IdLokasi": 9,
    "NamaLokasi": "JAWA ",
    "IsLokal": true,
    "LokasiDesc": "JAWA  (Lokal)",
    "Alamat": "",
    "AlamatPengiriman": "",
    "Email": ""
  },
  {
    "IdCustomer": 149,
    "NamaCustomer": "BIN MAHFOOZ JEWELLERS",
    "KodeCustomer": "BMJ",
    "IdLokasi": 4,
    "NamaLokasi": "DUBAI",
    "IsLokal": false,
    "LokasiDesc": "DUBAI (Ekspor)",
    "Alamat": "",
    "AlamatPengiriman": "",
    "Email": ""
  },
  {
    "IdCustomer": 62,
    "NamaCustomer": "BINTANG ENAM",
    "KodeCustomer": "003",
    "IdLokasi": 1,
    "NamaLokasi": "BANDUNG",
    "IsLokal": true,
    "LokasiDesc": "BANDUNG (Lokal)",
    "Alamat": "",
    "AlamatPengiriman": "",
    "Email": ""
  },
  {
    "IdCustomer": 75,
    "NamaCustomer": "BINTANG JAKARTA",
    "KodeCustomer": "012",
    "IdLokasi": 3,
    "NamaLokasi": "JAKARTA",
    "IsLokal": true,
    "LokasiDesc": "JAKARTA (Lokal)",
    "Alamat": "",
    "AlamatPengiriman": "",
    "Email": ""
  },
  {
    "IdCustomer": 83,
    "NamaCustomer": "BINTANG SEMARANG",
    "KodeCustomer": "023",
    "IdLokasi": 9,
    "NamaLokasi": "JAWA ",
    "IsLokal": true,
    "LokasiDesc": "JAWA  (Lokal)",
    "Alamat": "",
    "AlamatPengiriman": "",
    "Email": ""
  },
  {
    "IdCustomer": 110,
    "NamaCustomer": "BINTANG SURABAYA",
    "KodeCustomer": "049",
    "IdLokasi": 2,
    "NamaLokasi": "SURABAYA",
    "IsLokal": true,
    "LokasiDesc": "SURABAYA (Lokal)",
    "Alamat": "",
    "AlamatPengiriman": "",
    "Email": ""
  },
  {
    "IdCustomer": 56,
    "NamaCustomer": "BINTANG SURABAYA",
    "KodeCustomer": "049",
    "IdLokasi": 2,
    "NamaLokasi": "SURABAYA",
    "IsLokal": true,
    "LokasiDesc": "SURABAYA (Lokal)",
    "Alamat": "",
    "AlamatPengiriman": "",
    "Email": ""
  },
  {
    "IdCustomer": 49,
    "NamaCustomer": "BRACINI LTD",
    "KodeCustomer": "BRC",
    "IdLokasi": 24,
    "NamaLokasi": "U.K",
    "IsLokal": false,
    "LokasiDesc": "U.K (Ekspor)",
    "Alamat": "SUITE 219, THE HATTON GARDEN CENTER\n100 HATTON GARDEN, LONDON EC1N8NX\nU.K\nFAX: (020) 7831-4501\nTEL : (020) 3441-4248\n",
    "AlamatPengiriman": "SUITE 219, THE HATTON GARDEN CENTER\n100 HATTON GARDEN, LONDON EC1N8NX\nU.K\nFAX: (020) 7831-4501\nTEL : (020) 3441-4248\n",
    "Email": ""
  },
  {
    "IdCustomer": 14,
    "NamaCustomer": "BRIO",
    "KodeCustomer": "BR",
    "IdLokasi": 5,
    "NamaLokasi": "HONGKONG",
    "IsLokal": false,
    "LokasiDesc": "HONGKONG (Ekspor)",
    "Alamat": "",
    "AlamatPengiriman": "",
    "Email": ""
  },
  {
    "IdCustomer": 111,
    "NamaCustomer": "BUDI ",
    "KodeCustomer": "050",
    "IdLokasi": 3,
    "NamaLokasi": "JAKARTA",
    "IsLokal": true,
    "LokasiDesc": "JAKARTA (Lokal)",
    "Alamat": "",
    "AlamatPengiriman": "",
    "Email": ""
  },
  {
    "IdCustomer": 155,
    "NamaCustomer": "CBE",
    "KodeCustomer": "CBE",
    "IdLokasi": 6,
    "NamaLokasi": "USA",
    "IsLokal": false,
    "LokasiDesc": "USA (Ekspor)",
    "Alamat": "620 Cathcart St. Suite 1000\nMontreal",
    "AlamatPengiriman": "620 Cathcart St. Suite 1000\nMontreal",
    "Email": ""
  },
  {
    "IdCustomer": 15,
    "NamaCustomer": "C-GOLDEN",
    "KodeCustomer": "CGD",
    "IdLokasi": 5,
    "NamaLokasi": "HONGKONG",
    "IsLokal": false,
    "LokasiDesc": "HONGKONG (Ekspor)",
    "Alamat": "",
    "AlamatPengiriman": "",
    "Email": ""
  },
  {
    "IdCustomer": 153,
    "NamaCustomer": "CHINESSE MARKET",
    "KodeCustomer": "CM",
    "IdLokasi": 5,
    "NamaLokasi": "HONGKONG",
    "IsLokal": false,
    "LokasiDesc": "HONGKONG (Ekspor)",
    "Alamat": "",
    "AlamatPengiriman": "",
    "Email": ""
  },
  {
    "IdCustomer": 112,
    "NamaCustomer": "CHRISTINE",
    "KodeCustomer": "051",
    "IdLokasi": 2,
    "NamaLokasi": "SURABAYA",
    "IsLokal": true,
    "LokasiDesc": "SURABAYA (Lokal)",
    "Alamat": "",
    "AlamatPengiriman": "",
    "Email": ""
  },
  {
    "IdCustomer": 84,
    "NamaCustomer": "CI CONNY",
    "KodeCustomer": "025",
    "IdLokasi": 9,
    "NamaLokasi": "JAWA ",
    "IsLokal": true,
    "LokasiDesc": "JAWA  (Lokal)",
    "Alamat": "",
    "AlamatPengiriman": "",
    "Email": ""
  },
  {
    "IdCustomer": 77,
    "NamaCustomer": "CI LING2/ DE",
    "KodeCustomer": "015",
    "IdLokasi": 3,
    "NamaLokasi": "JAKARTA",
    "IsLokal": true,
    "LokasiDesc": "JAKARTA (Lokal)",
    "Alamat": "",
    "AlamatPengiriman": "",
    "Email": ""
  },
  {
    "IdCustomer": 74,
    "NamaCustomer": "CI YENI",
    "KodeCustomer": "011",
    "IdLokasi": 3,
    "NamaLokasi": "JAKARTA",
    "IsLokal": true,
    "LokasiDesc": "JAKARTA (Lokal)",
    "Alamat": "",
    "AlamatPengiriman": "",
    "Email": ""
  },
  {
    "IdCustomer": 16,
    "NamaCustomer": "CK GOLD",
    "KodeCustomer": "CKG",
    "IdLokasi": 5,
    "NamaLokasi": "HONGKONG",
    "IsLokal": false,
    "LokasiDesc": "HONGKONG (Ekspor)",
    "Alamat": "",
    "AlamatPengiriman": "",
    "Email": ""
  },
  {
    "IdCustomer": 36,
    "NamaCustomer": "CNG",
    "KodeCustomer": "CNG",
    "IdLokasi": 5,
    "NamaLokasi": "HONGKONG",
    "IsLokal": false,
    "LokasiDesc": "HONGKONG (Ekspor)",
    "Alamat": "",
    "AlamatPengiriman": "",
    "Email": ""
  },
  {
    "IdCustomer": 90,
    "NamaCustomer": "CRISTAL",
    "KodeCustomer": "029",
    "IdLokasi": 2,
    "NamaLokasi": "SURABAYA",
    "IsLokal": true,
    "LokasiDesc": "SURABAYA (Lokal)",
    "Alamat": "",
    "AlamatPengiriman": "",
    "Email": ""
  },
  {
    "IdCustomer": 96,
    "NamaCustomer": "DAMAI",
    "KodeCustomer": "034",
    "IdLokasi": 2,
    "NamaLokasi": "SURABAYA",
    "IsLokal": true,
    "LokasiDesc": "SURABAYA (Lokal)",
    "Alamat": "",
    "AlamatPengiriman": "",
    "Email": ""
  },
  {
    "IdCustomer": 5,
    "NamaCustomer": "DAMAS",
    "KodeCustomer": "DMS",
    "IdLokasi": 4,
    "NamaLokasi": "DUBAI",
    "IsLokal": false,
    "LokasiDesc": "DUBAI (Ekspor)",
    "Alamat": "",
    "AlamatPengiriman": "",
    "Email": ""
  },
  {
    "IdCustomer": 42,
    "NamaCustomer": "DASAN",
    "KodeCustomer": "DSN",
    "IdLokasi": 6,
    "NamaLokasi": "USA",
    "IsLokal": false,
    "LokasiDesc": "USA (Ekspor)",
    "Alamat": "54 West 39th Street, 8th Floor\nNew York, NY 10018\n(212) 244 5410\nU.S.A",
    "AlamatPengiriman": "54 West 39th Street, 8th Floor\nNew York, NY 10018\n(212) 244 5410\nU.S.A",
    "Email": ""
  },
  {
    "IdCustomer": 51,
    "NamaCustomer": "DAVID'S GOLD & DIAMOND",
    "KodeCustomer": "DGD",
    "IdLokasi": 6,
    "NamaLokasi": "USA",
    "IsLokal": false,
    "LokasiDesc": "USA (Ekspor)",
    "Alamat": "650 SOUTH HILL ST, SUIT # 618\nLOS ANGELES , CA 90014\nUSA\nTEL:  +1-213-305-1271 <tel:%2B1-213-305-1271>\nATTN: BEZHAD LALEZARI\n",
    "AlamatPengiriman": "650 SOUTH HILL ST, SUIT # 618\nLOS ANGELES , CA 90014\nUSA\nTEL:  +1-213-305-1271 <tel:%2B1-213-305-1271>\nATTN: BEZHAD LALEZARI\n",
    "Email": "lalezari.behzad@gmail.com"
  },
  {
    "IdCustomer": 6,
    "NamaCustomer": "DIAMOREX",
    "KodeCustomer": "DMX",
    "IdLokasi": 4,
    "NamaLokasi": "DUBAI",
    "IsLokal": false,
    "LokasiDesc": "DUBAI (Ekspor)",
    "Alamat": "",
    "AlamatPengiriman": "",
    "Email": ""
  },
  {
    "IdCustomer": 102,
    "NamaCustomer": "DINAR",
    "KodeCustomer": "041",
    "IdLokasi": 9,
    "NamaLokasi": "JAWA ",
    "IsLokal": true,
    "LokasiDesc": "JAWA  (Lokal)",
    "Alamat": "",
    "AlamatPengiriman": "",
    "Email": ""
  },
  {
    "IdCustomer": 169,
    "NamaCustomer": "DOJI",
    "KodeCustomer": "DJ",
    "IdLokasi": 28,
    "NamaLokasi": "VIETNAM",
    "IsLokal": false,
    "LokasiDesc": "VIETNAM (Ekspor)",
    "Alamat": "",
    "AlamatPengiriman": "",
    "Email": ""
  },
  {
    "IdCustomer": 146,
    "NamaCustomer": "E CHABOT, LTD.",
    "KodeCustomer": "E Chabot",
    "IdLokasi": 6,
    "NamaLokasi": "USA",
    "IsLokal": false,
    "LokasiDesc": "USA (Ekspor)",
    "Alamat": "1002 Quentin RD\nBrooklyn, N.Y. 11223 USA",
    "AlamatPengiriman": "1002 Quentin RD\nBrooklyn, N.Y. 11223 USA",
    "Email": ""
  },
  {
    "IdCustomer": 142,
    "NamaCustomer": "E&H COLLECTIONS",
    "KodeCustomer": "E&H",
    "IdLokasi": 6,
    "NamaLokasi": "USA",
    "IsLokal": false,
    "LokasiDesc": "USA (Ekspor)",
    "Alamat": "",
    "AlamatPengiriman": "",
    "Email": ""
  },
  {
    "IdCustomer": 139,
    "NamaCustomer": "EMPIRE",
    "KodeCustomer": "EMP",
    "IdLokasi": 5,
    "NamaLokasi": "HONGKONG",
    "IsLokal": false,
    "LokasiDesc": "HONGKONG (Ekspor)",
    "Alamat": "",
    "AlamatPengiriman": "",
    "Email": ""
  },
  {
    "IdCustomer": 152,
    "NamaCustomer": "ERBIL JEWELLERY",
    "KodeCustomer": "ERB",
    "IdLokasi": 4,
    "NamaLokasi": "DUBAI",
    "IsLokal": false,
    "LokasiDesc": "DUBAI (Ekspor)",
    "Alamat": "Al sumsi building , shop No:3, Behind sky jewellery\nAl ras, Deira\nTel: +971 4235 2884",
    "AlamatPengiriman": "Al sumsi building , shop No:3, Behind sky jewellery\nAl ras, Deira\nTel: +971 4235 2884",
    "Email": "artbullion@gmail.com"
  },
  {
    "IdCustomer": 61,
    "NamaCustomer": "EROPA",
    "KodeCustomer": "002",
    "IdLokasi": 1,
    "NamaLokasi": "BANDUNG",
    "IsLokal": true,
    "LokasiDesc": "BANDUNG (Lokal)",
    "Alamat": "",
    "AlamatPengiriman": "",
    "Email": ""
  },
  {
    "IdCustomer": 127,
    "NamaCustomer": "FANCY JEWELRY",
    "KodeCustomer": "FJ",
    "IdLokasi": 6,
    "NamaLokasi": "USA",
    "IsLokal": false,
    "LokasiDesc": "USA (Ekspor)",
    "Alamat": "650 S. HILL ST. SUITE 228 LOS ANGELES. CA 90014",
    "AlamatPengiriman": "650 S. HILL ST. SUITE 228 LOS ANGELES. CA 90014",
    "Email": "fancyimports@yahoo.com"
  },
  {
    "IdCustomer": 159,
    "NamaCustomer": "FASSON SA DE CV",
    "KodeCustomer": "FAS",
    "IdLokasi": 6,
    "NamaLokasi": "USA",
    "IsLokal": false,
    "LokasiDesc": "USA (Ekspor)",
    "Alamat": "Fco.I.Madero No.53/PH\nCol.Centro, CP 06000\nCDMX ,Mexico.\nTel.(55) 55188011",
    "AlamatPengiriman": "Fco.I.Madero No.53/PH\nCol.Centro, CP 06000\nCDMX ,Mexico.\nTel.(55) 55188011",
    "Email": "fassonmex@gmail.com"
  },
  {
    "IdCustomer": 7,
    "NamaCustomer": "FAVOR",
    "KodeCustomer": "FVR",
    "IdLokasi": 4,
    "NamaLokasi": "DUBAI",
    "IsLokal": false,
    "LokasiDesc": "DUBAI (Ekspor)",
    "Alamat": "",
    "AlamatPengiriman": "",
    "Email": ""
  },
  {
    "IdCustomer": 123,
    "NamaCustomer": "FINE GOLD",
    "KodeCustomer": "FG",
    "IdLokasi": 5,
    "NamaLokasi": "HONGKONG",
    "IsLokal": false,
    "LokasiDesc": "HONGKONG (Ekspor)",
    "Alamat": "1019 ONGPIN ST.,STA.CRUZ\nMANILA PHILIPINES,1003\nPHONE: +632 733 6933/733 3876\nFAX : +632 734 3869\nMOBILE: +632 917 808 0555\nEMAIL : @finegold88@yahoo.com",
    "AlamatPengiriman": "A.J. JEWELLERY INTERNATIONAL LTD.\nUnit 414, 4 Floor, Heng Ngai Jewellery Centre, 4 Hok Yuen Street, Hung Hom, Kowloon, Hongkong\n",
    "Email": ""
  },
  {
    "IdCustomer": 161,
    "NamaCustomer": "FINE SILVER",
    "KodeCustomer": "FS(IGS)",
    "IdLokasi": 6,
    "NamaLokasi": "USA",
    "IsLokal": false,
    "LokasiDesc": "USA (Ekspor)",
    "Alamat": "",
    "AlamatPengiriman": "",
    "Email": ""
  },
  {
    "IdCustomer": 38,
    "NamaCustomer": "FRANK N CO",
    "KodeCustomer": "FNC",
    "IdLokasi": 7,
    "NamaLokasi": "JAKARTA",
    "IsLokal": false,
    "LokasiDesc": "JAKARTA (Ekspor)",
    "Alamat": "",
    "AlamatPengiriman": "",
    "Email": ""
  },
  {
    "IdCustomer": 171,
    "NamaCustomer": "FRANK N CO",
    "KodeCustomer": "FNC",
    "IdLokasi": 3,
    "NamaLokasi": "JAKARTA",
    "IsLokal": true,
    "LokasiDesc": "JAKARTA (Lokal)",
    "Alamat": "",
    "AlamatPengiriman": "",
    "Email": ""
  },
  {
    "IdCustomer": 163,
    "NamaCustomer": "FREMADA GOLD, INC",
    "KodeCustomer": "FRE",
    "IdLokasi": 6,
    "NamaLokasi": "USA",
    "IsLokal": false,
    "LokasiDesc": "USA (Ekspor)",
    "Alamat": "2 West 45th St\nSuite 1605\nNew York, NY 10036\n212-921-8829 ext 108",
    "AlamatPengiriman": "2 West 45th St\nSuite 1605\nNew York, NY 10036\n212-921-8829 ext 108",
    "Email": ""
  },
  {
    "IdCustomer": 150,
    "NamaCustomer": "FUZION CREATIONS",
    "KodeCustomer": "FZ",
    "IdLokasi": 6,
    "NamaLokasi": "USA",
    "IsLokal": false,
    "LokasiDesc": "USA (Ekspor)",
    "Alamat": "",
    "AlamatPengiriman": "",
    "Email": ""
  },
  {
    "IdCustomer": 92,
    "NamaCustomer": "GAJAH SIDOARJO",
    "KodeCustomer": "031",
    "IdLokasi": 2,
    "NamaLokasi": "SURABAYA",
    "IsLokal": true,
    "LokasiDesc": "SURABAYA (Lokal)",
    "Alamat": "",
    "AlamatPengiriman": "",
    "Email": ""
  },
  {
    "IdCustomer": 72,
    "NamaCustomer": "GAJAH WIRADESA",
    "KodeCustomer": "009",
    "IdLokasi": 9,
    "NamaLokasi": "JAWA ",
    "IsLokal": true,
    "LokasiDesc": "JAWA  (Lokal)",
    "Alamat": "",
    "AlamatPengiriman": "",
    "Email": ""
  },
  {
    "IdCustomer": 17,
    "NamaCustomer": "GOLD BRIGHT HONGKONG LIMITED",
    "KodeCustomer": "GB",
    "IdLokasi": 5,
    "NamaLokasi": "HONGKONG",
    "IsLokal": false,
    "LokasiDesc": "HONGKONG (Ekspor)",
    "Alamat": "21/F., 88 COMMERCIAL BUILDING, \n28 WING LOK STREET, SHEUNG WAN,\nHONGKONG\nTEL : 2815 2800 \nFAX : 2815 2819\n",
    "AlamatPengiriman": "21/F., 88 COMMERCIAL BUILDING, \n28 WING LOK STREET, SHEUNG WAN,\nHONGKONG\nTEL : 2815 2800 \nFAX : 2815 2819",
    "Email": ""
  },
  {
    "IdCustomer": 157,
    "NamaCustomer": "GOLD N DIAMONDS",
    "KodeCustomer": "GND",
    "IdLokasi": 6,
    "NamaLokasi": "USA",
    "IsLokal": false,
    "LokasiDesc": "USA (Ekspor)",
    "Alamat": "250 Spring St. NW\nSuite 6E 320-323\nAtlanta, GA 30303",
    "AlamatPengiriman": "250 Spring St. NW\nSuite 6E 320-323\nAtlanta, GA 30303",
    "Email": "sohail@gold-n-diamond.com"
  },
  {
    "IdCustomer": 126,
    "NamaCustomer": "GOLDEN ROYAL CROWN",
    "KodeCustomer": "GRC",
    "IdLokasi": 5,
    "NamaLokasi": "HONGKONG",
    "IsLokal": false,
    "LokasiDesc": "HONGKONG (Ekspor)",
    "Alamat": "",
    "AlamatPengiriman": "",
    "Email": ""
  },
  {
    "IdCustomer": 8,
    "NamaCustomer": "GOLDY",
    "KodeCustomer": "GLY",
    "IdLokasi": 4,
    "NamaLokasi": "DUBAI",
    "IsLokal": false,
    "LokasiDesc": "DUBAI (Ekspor)",
    "Alamat": "",
    "AlamatPengiriman": "",
    "Email": ""
  },
  {
    "IdCustomer": 18,
    "NamaCustomer": "GRAND ORO",
    "KodeCustomer": "GO",
    "IdLokasi": 5,
    "NamaLokasi": "HONGKONG",
    "IsLokal": false,
    "LokasiDesc": "HONGKONG (Ekspor)",
    "Alamat": "",
    "AlamatPengiriman": "",
    "Email": ""
  },
  {
    "IdCustomer": 30,
    "NamaCustomer": "GSJ",
    "KodeCustomer": "GSJ",
    "IdLokasi": 4,
    "NamaLokasi": "DUBAI",
    "IsLokal": false,
    "LokasiDesc": "DUBAI (Ekspor)",
    "Alamat": "",
    "AlamatPengiriman": "",
    "Email": ""
  },
  {
    "IdCustomer": 135,
    "NamaCustomer": "HAKOP JEWELLERY",
    "KodeCustomer": "HJ",
    "IdLokasi": 6,
    "NamaLokasi": "USA",
    "IsLokal": false,
    "LokasiDesc": "USA (Ekspor)",
    "Alamat": "58 West 47th Street, Booth #23\nNew York, NY 10036\nUSA\nTel : 212 921 4124",
    "AlamatPengiriman": "58 West 47th Street, Booth #23\nNew York, NY 10036\nUSA\nTel : 212 921 4124",
    "Email": ""
  },
  {
    "IdCustomer": 34,
    "NamaCustomer": "HAMI",
    "KodeCustomer": "HM",
    "IdLokasi": 4,
    "NamaLokasi": "DUBAI",
    "IsLokal": false,
    "LokasiDesc": "DUBAI (Ekspor)",
    "Alamat": "",
    "AlamatPengiriman": "",
    "Email": ""
  },
  {
    "IdCustomer": 19,
    "NamaCustomer": "HANG FAT",
    "KodeCustomer": "HF",
    "IdLokasi": 5,
    "NamaLokasi": "HONGKONG",
    "IsLokal": false,
    "LokasiDesc": "HONGKONG (Ekspor)",
    "Alamat": "",
    "AlamatPengiriman": "",
    "Email": ""
  },
  {
    "IdCustomer": 46,
    "NamaCustomer": "INTERNATIONAL BULLION & METAL BROKERS",
    "KodeCustomer": "IBB",
    "IdLokasi": 6,
    "NamaLokasi": "USA",
    "IsLokal": false,
    "LokasiDesc": "USA (Ekspor)",
    "Alamat": "Kovacs House, Hatton Garden\nLondon EC1N8JD\n(044)2070252500",
    "AlamatPengiriman": "Kovacs House, Hatton Garden\nLondon EC1N8JD\n(044)2070252500",
    "Email": ""
  },
  {
    "IdCustomer": 95,
    "NamaCustomer": "IS POTINE",
    "KodeCustomer": "033",
    "IdLokasi": 2,
    "NamaLokasi": "SURABAYA",
    "IsLokal": true,
    "LokasiDesc": "SURABAYA (Lokal)",
    "Alamat": "",
    "AlamatPengiriman": "",
    "Email": ""
  },
  {
    "IdCustomer": 103,
    "NamaCustomer": "ISMOYO",
    "KodeCustomer": "042",
    "IdLokasi": 9,
    "NamaLokasi": "JAWA ",
    "IsLokal": true,
    "LokasiDesc": "JAWA  (Lokal)",
    "Alamat": "",
    "AlamatPengiriman": "",
    "Email": ""
  },
  {
    "IdCustomer": 40,
    "NamaCustomer": "ITALIAN GOLD",
    "KodeCustomer": "IG",
    "IdLokasi": 6,
    "NamaLokasi": "USA",
    "IsLokal": false,
    "LokasiDesc": "USA (Ekspor)",
    "Alamat": "608 S.HILL STREET SUITE #902\n9TH FLOOR\nLOS ANGELES, CA 90014\nTEL : (213)629-0074\nFAX: (213)629-1300",
    "AlamatPengiriman": "608 S.HILL STREET SUITE #902\n9TH FLOOR\nLOS ANGELES, CA 90014\nTEL : (213)629-0074\nFAX: (213)629-1300",
    "Email": ""
  },
  {
    "IdCustomer": 100,
    "NamaCustomer": "ITALY ",
    "KodeCustomer": "038",
    "IdLokasi": 16,
    "NamaLokasi": "MEDAN",
    "IsLokal": true,
    "LokasiDesc": "MEDAN (Lokal)",
    "Alamat": "",
    "AlamatPengiriman": "",
    "Email": ""
  },
  {
    "IdCustomer": 50,
    "NamaCustomer": "ITALY IN GOLD STAR",
    "KodeCustomer": "IGS",
    "IdLokasi": 6,
    "NamaLokasi": "USA",
    "IsLokal": false,
    "LokasiDesc": "USA (Ekspor)",
    "Alamat": "580 FIFTH AVENUE, SUITE 623\nNEW YORK, NY 10036\nUSA \nTEL : (212) 575-9889\n",
    "AlamatPengiriman": "580 FIFTH AVENUE, SUITE 623\nNEW YORK, NY 10036\nUSA \nTEL : (212) 575-9889\n",
    "Email": ""
  },
  {
    "IdCustomer": 20,
    "NamaCustomer": "ITAT TRADING",
    "KodeCustomer": "IT",
    "IdLokasi": 5,
    "NamaLokasi": "HONGKONG",
    "IsLokal": false,
    "LokasiDesc": "HONGKONG (Ekspor)",
    "Alamat": "",
    "AlamatPengiriman": "",
    "Email": ""
  },
  {
    "IdCustomer": 105,
    "NamaCustomer": "IWAN",
    "KodeCustomer": "044",
    "IdLokasi": 2,
    "NamaLokasi": "SURABAYA",
    "IsLokal": true,
    "LokasiDesc": "SURABAYA (Lokal)",
    "Alamat": "",
    "AlamatPengiriman": "",
    "Email": ""
  },
  {
    "IdCustomer": 47,
    "NamaCustomer": "J&J JOYEROS",
    "KodeCustomer": "J&J",
    "IdLokasi": 6,
    "NamaLokasi": "USA",
    "IsLokal": false,
    "LokasiDesc": "USA (Ekspor)",
    "Alamat": "",
    "AlamatPengiriman": "",
    "Email": ""
  },
  {
    "IdCustomer": 125,
    "NamaCustomer": "JAMAL JEWELLERY CO",
    "KodeCustomer": "JJ",
    "IdLokasi": 4,
    "NamaLokasi": "DUBAI",
    "IsLokal": false,
    "LokasiDesc": "DUBAI (Ekspor)",
    "Alamat": "",
    "AlamatPengiriman": "",
    "Email": ""
  },
  {
    "IdCustomer": 21,
    "NamaCustomer": "JERAH",
    "KodeCustomer": "JRH",
    "IdLokasi": 5,
    "NamaLokasi": "HONGKONG",
    "IsLokal": false,
    "LokasiDesc": "HONGKONG (Ekspor)",
    "Alamat": "",
    "AlamatPengiriman": "",
    "Email": ""
  },
  {
    "IdCustomer": 97,
    "NamaCustomer": "JEREMY",
    "KodeCustomer": "035",
    "IdLokasi": 2,
    "NamaLokasi": "SURABAYA",
    "IsLokal": true,
    "LokasiDesc": "SURABAYA (Lokal)",
    "Alamat": "",
    "AlamatPengiriman": "",
    "Email": ""
  },
  {
    "IdCustomer": 37,
    "NamaCustomer": "KAZEM AZADI JEWELLERY TRADING LLC",
    "KodeCustomer": "KA",
    "IdLokasi": 4,
    "NamaLokasi": "DUBAI",
    "IsLokal": false,
    "LokasiDesc": "DUBAI (Ekspor)",
    "Alamat": "THE GOLD CENTER BLDG\nMEZZANINE FLOOR, SHOP NO.M-015\nDEIRA, DUBAI\nTEL : +971 4 2202021\n",
    "AlamatPengiriman": "THE GOLD CENTER BLDG\nMEZZANINE FLOOR, SHOP NO.M-015\nDEIRA, DUBAI\nTEL : +971 4 2202021",
    "Email": ""
  },
  {
    "IdCustomer": 64,
    "NamaCustomer": "KEBUMEN",
    "KodeCustomer": "024",
    "IdLokasi": 9,
    "NamaLokasi": "JAWA ",
    "IsLokal": true,
    "LokasiDesc": "JAWA  (Lokal)",
    "Alamat": "",
    "AlamatPengiriman": "",
    "Email": ""
  },
  {
    "IdCustomer": 22,
    "NamaCustomer": "KEYLINE",
    "KodeCustomer": "KL",
    "IdLokasi": 5,
    "NamaLokasi": "HONGKONG",
    "IsLokal": false,
    "LokasiDesc": "HONGKONG (Ekspor)",
    "Alamat": "",
    "AlamatPengiriman": "",
    "Email": ""
  },
  {
    "IdCustomer": 73,
    "NamaCustomer": "KINGHAN",
    "KodeCustomer": "010",
    "IdLokasi": 3,
    "NamaLokasi": "JAKARTA",
    "IsLokal": true,
    "LokasiDesc": "JAKARTA (Lokal)",
    "Alamat": "",
    "AlamatPengiriman": "",
    "Email": ""
  },
  {
    "IdCustomer": 67,
    "NamaCustomer": "KO AMEN",
    "KodeCustomer": "005",
    "IdLokasi": 10,
    "NamaLokasi": "BOGOR",
    "IsLokal": true,
    "LokasiDesc": "BOGOR (Lokal)",
    "Alamat": "",
    "AlamatPengiriman": "",
    "Email": ""
  },
  {
    "IdCustomer": 131,
    "NamaCustomer": "KO AMRI",
    "KodeCustomer": "60",
    "IdLokasi": 3,
    "NamaLokasi": "JAKARTA",
    "IsLokal": true,
    "LokasiDesc": "JAKARTA (Lokal)",
    "Alamat": "PERUM BATU CEPER PERMAI BLOK O NO.13\nJL.DAAN MOGOT KM 21 , TANGERANG\nTELP : 021-5586783\n",
    "AlamatPengiriman": "PERUM BATU CEPER PERMAI BLOK O NO.13\nJL.DAAN MOGOT KM 21 , TANGERANG\nTELP : 021-5586783\n",
    "Email": ""
  },
  {
    "IdCustomer": 132,
    "NamaCustomer": "KO ANDRI(SURABAYA TASIK)",
    "KodeCustomer": "036",
    "IdLokasi": 1,
    "NamaLokasi": "BANDUNG",
    "IsLokal": true,
    "LokasiDesc": "BANDUNG (Lokal)",
    "Alamat": "CIHIDEUNG\nTASIK",
    "AlamatPengiriman": "CIHIDEUNG\nTASIK",
    "Email": ""
  },
  {
    "IdCustomer": 85,
    "NamaCustomer": "KO CANGLIANG",
    "KodeCustomer": "026",
    "IdLokasi": 9,
    "NamaLokasi": "JAWA ",
    "IsLokal": true,
    "LokasiDesc": "JAWA  (Lokal)",
    "Alamat": "",
    "AlamatPengiriman": "",
    "Email": ""
  },
  {
    "IdCustomer": 60,
    "NamaCustomer": "KO HUNG MING",
    "KodeCustomer": "001",
    "IdLokasi": 1,
    "NamaLokasi": "BANDUNG",
    "IsLokal": true,
    "LokasiDesc": "BANDUNG (Lokal)",
    "Alamat": "",
    "AlamatPengiriman": "",
    "Email": ""
  },
  {
    "IdCustomer": 109,
    "NamaCustomer": "KO RIVAN",
    "KodeCustomer": "048",
    "IdLokasi": 2,
    "NamaLokasi": "SURABAYA",
    "IsLokal": true,
    "LokasiDesc": "SURABAYA (Lokal)",
    "Alamat": "",
    "AlamatPengiriman": "",
    "Email": ""
  },
  {
    "IdCustomer": 91,
    "NamaCustomer": "KO SHU SHEN",
    "KodeCustomer": "030",
    "IdLokasi": 2,
    "NamaLokasi": "SURABAYA",
    "IsLokal": true,
    "LokasiDesc": "SURABAYA (Lokal)",
    "Alamat": "",
    "AlamatPengiriman": "",
    "Email": ""
  },
  {
    "IdCustomer": 108,
    "NamaCustomer": "KO TONI",
    "KodeCustomer": "047",
    "IdLokasi": 2,
    "NamaLokasi": "SURABAYA",
    "IsLokal": true,
    "LokasiDesc": "SURABAYA (Lokal)",
    "Alamat": "",
    "AlamatPengiriman": "",
    "Email": ""
  },
  {
    "IdCustomer": 138,
    "NamaCustomer": "KONDAKIS LOUKILLIANOS",
    "KodeCustomer": "KK",
    "IdLokasi": 23,
    "NamaLokasi": "GREECE",
    "IsLokal": false,
    "LokasiDesc": "GREECE (Ekspor)",
    "Alamat": "Praxitelous str. 40\np.c 10561\nAthens\nTel : 210 3221129\n",
    "AlamatPengiriman": "Praxitelous str. 40\np.c 10561\nAthens\nTel : 210 3221129\n",
    "Email": "loukillianos@gmail.com"
  },
  {
    "IdCustomer": 52,
    "NamaCustomer": "LEE'S GOLD",
    "KodeCustomer": "LG",
    "IdLokasi": 6,
    "NamaLokasi": "USA",
    "IsLokal": false,
    "LokasiDesc": "USA (Ekspor)",
    "Alamat": "",
    "AlamatPengiriman": "",
    "Email": ""
  },
  {
    "IdCustomer": 43,
    "NamaCustomer": "LEJ",
    "KodeCustomer": "LEJ",
    "IdLokasi": 5,
    "NamaLokasi": "HONGKONG",
    "IsLokal": false,
    "LokasiDesc": "HONGKONG (Ekspor)",
    "Alamat": "",
    "AlamatPengiriman": "",
    "Email": ""
  },
  {
    "IdCustomer": 129,
    "NamaCustomer": "LIBERTY EXCHANGE ",
    "KodeCustomer": "LE",
    "IdLokasi": 6,
    "NamaLokasi": "USA",
    "IsLokal": false,
    "LokasiDesc": "USA (Ekspor)",
    "Alamat": "739 E Walnut St Ste 200\nPadasena, California\n91101-1656\nUnited States, Los Angeles",
    "AlamatPengiriman": "739 E Walnut St Ste 200\nPadasena, California\n91101-1656\nUnited States, Los Angeles",
    "Email": "sima@liberty-ex.com"
  },
  {
    "IdCustomer": 164,
    "NamaCustomer": "LINO",
    "KodeCustomer": "LINO",
    "IdLokasi": 5,
    "NamaLokasi": "HONGKONG",
    "IsLokal": false,
    "LokasiDesc": "HONGKONG (Ekspor)",
    "Alamat": "",
    "AlamatPengiriman": "",
    "Email": ""
  },
  {
    "IdCustomer": 122,
    "NamaCustomer": "LO KHIONG",
    "KodeCustomer": "059",
    "IdLokasi": 1,
    "NamaLokasi": "BANDUNG",
    "IsLokal": true,
    "LokasiDesc": "BANDUNG (Lokal)",
    "Alamat": "",
    "AlamatPengiriman": "",
    "Email": ""
  },
  {
    "IdCustomer": 23,
    "NamaCustomer": "MABROS",
    "KodeCustomer": "MBS",
    "IdLokasi": 5,
    "NamaLokasi": "HONGKONG",
    "IsLokal": false,
    "LokasiDesc": "HONGKONG (Ekspor)",
    "Alamat": "",
    "AlamatPengiriman": "",
    "Email": ""
  },
  {
    "IdCustomer": 134,
    "NamaCustomer": "MAHALLATI",
    "KodeCustomer": "MHL",
    "IdLokasi": 4,
    "NamaLokasi": "DUBAI",
    "IsLokal": false,
    "LokasiDesc": "DUBAI (Ekspor)",
    "Alamat": "",
    "AlamatPengiriman": "",
    "Email": ""
  },
  {
    "IdCustomer": 121,
    "NamaCustomer": "MAHESH & CO PTE LTD",
    "KodeCustomer": "MHC",
    "IdLokasi": 17,
    "NamaLokasi": "SINGAPORE",
    "IsLokal": false,
    "LokasiDesc": "SINGAPORE (Ekspor)",
    "Alamat": "36, Cuff Road\nSingapore 209744",
    "AlamatPengiriman": "36, Cuff Road\nSingapore 209744",
    "Email": ""
  },
  {
    "IdCustomer": 120,
    "NamaCustomer": "MANTAP",
    "KodeCustomer": "058",
    "IdLokasi": 14,
    "NamaLokasi": "UJUNGPANDANG",
    "IsLokal": true,
    "LokasiDesc": "UJUNGPANDANG (Lokal)",
    "Alamat": "",
    "AlamatPengiriman": "",
    "Email": ""
  },
  {
    "IdCustomer": 79,
    "NamaCustomer": "MEGAH JAYA",
    "KodeCustomer": "018",
    "IdLokasi": 14,
    "NamaLokasi": "UJUNGPANDANG",
    "IsLokal": true,
    "LokasiDesc": "UJUNGPANDANG (Lokal)",
    "Alamat": "",
    "AlamatPengiriman": "",
    "Email": ""
  },
  {
    "IdCustomer": 116,
    "NamaCustomer": "MEGAH MURNI",
    "KodeCustomer": "055",
    "IdLokasi": 14,
    "NamaLokasi": "UJUNGPANDANG",
    "IsLokal": true,
    "LokasiDesc": "UJUNGPANDANG (Lokal)",
    "Alamat": "",
    "AlamatPengiriman": "",
    "Email": ""
  },
  {
    "IdCustomer": 70,
    "NamaCustomer": "MERAK",
    "KodeCustomer": "007",
    "IdLokasi": 9,
    "NamaLokasi": "JAWA ",
    "IsLokal": true,
    "LokasiDesc": "JAWA  (Lokal)",
    "Alamat": "",
    "AlamatPengiriman": "",
    "Email": ""
  },
  {
    "IdCustomer": 41,
    "NamaCustomer": "METAL MARKETPLACE INTERNASIONAL",
    "KodeCustomer": "MMI",
    "IdLokasi": 6,
    "NamaLokasi": "USA",
    "IsLokal": false,
    "LokasiDesc": "USA (Ekspor)",
    "Alamat": "",
    "AlamatPengiriman": "",
    "Email": ""
  },
  {
    "IdCustomer": 48,
    "NamaCustomer": "MILOR S.P.A",
    "KodeCustomer": "MIL",
    "IdLokasi": 6,
    "NamaLokasi": "USA",
    "IsLokal": false,
    "LokasiDesc": "USA (Ekspor)",
    "Alamat": "",
    "AlamatPengiriman": "",
    "Email": ""
  },
  {
    "IdCustomer": 172,
    "NamaCustomer": "MILOR SPA",
    "KodeCustomer": "MIL",
    "IdLokasi": 22,
    "NamaLokasi": "ITALY",
    "IsLokal": false,
    "LokasiDesc": "ITALY (Ekspor)",
    "Alamat": "",
    "AlamatPengiriman": "",
    "Email": ""
  },
  {
    "IdCustomer": 44,
    "NamaCustomer": "MING MEI",
    "KodeCustomer": "MM",
    "IdLokasi": 5,
    "NamaLokasi": "HONGKONG",
    "IsLokal": false,
    "LokasiDesc": "HONGKONG (Ekspor)",
    "Alamat": "",
    "AlamatPengiriman": "",
    "Email": ""
  },
  {
    "IdCustomer": 99,
    "NamaCustomer": "MINI",
    "KodeCustomer": "037",
    "IdLokasi": 15,
    "NamaLokasi": "TASIK",
    "IsLokal": true,
    "LokasiDesc": "TASIK (Lokal)",
    "Alamat": "",
    "AlamatPengiriman": "",
    "Email": ""
  },
  {
    "IdCustomer": 156,
    "NamaCustomer": "MIURA",
    "KodeCustomer": "MIU",
    "IdLokasi": 25,
    "NamaLokasi": "JAPAN",
    "IsLokal": false,
    "LokasiDesc": "JAPAN (Ekspor)",
    "Alamat": "1-16-12 joto kofu\nYamanashi 400-0861 Japan\nTel : 055-237-2111\nFax : 055-237-2129",
    "AlamatPengiriman": "1-16-12 joto kofu\nYamanashi 400-0861 Japan\nTel : 055-237-2111\nFax : 055-237-2129",
    "Email": "miuraa@mint.ocn.ne.jp"
  },
  {
    "IdCustomer": 93,
    "NamaCustomer": "MK",
    "KodeCustomer": "032",
    "IdLokasi": 2,
    "NamaLokasi": "SURABAYA",
    "IsLokal": true,
    "LokasiDesc": "SURABAYA (Lokal)",
    "Alamat": "",
    "AlamatPengiriman": "",
    "Email": ""
  },
  {
    "IdCustomer": 136,
    "NamaCustomer": "MK JEWELLERY",
    "KodeCustomer": "MK",
    "IdLokasi": 6,
    "NamaLokasi": "USA",
    "IsLokal": false,
    "LokasiDesc": "USA (Ekspor)",
    "Alamat": "36 west 44th street 10 Fl. suite #1000\nNew York, NY 10036\nTel : (212) 213-9656\nFax : (212) 213-1078",
    "AlamatPengiriman": "36 west 44th street 10 Fl. suite #1000\nNew York, NY 10036\nTel : (212) 213-9656\nFax : (212) 213-1078",
    "Email": "kamal@mkjewel.com"
  },
  {
    "IdCustomer": 33,
    "NamaCustomer": "MOHSEN SAEDI",
    "KodeCustomer": "MHS",
    "IdLokasi": 4,
    "NamaLokasi": "DUBAI",
    "IsLokal": false,
    "LokasiDesc": "DUBAI (Ekspor)",
    "Alamat": "",
    "AlamatPengiriman": "",
    "Email": ""
  },
  {
    "IdCustomer": 107,
    "NamaCustomer": "MURNI JEMBER",
    "KodeCustomer": "046",
    "IdLokasi": 2,
    "NamaLokasi": "SURABAYA",
    "IsLokal": true,
    "LokasiDesc": "SURABAYA (Lokal)",
    "Alamat": "",
    "AlamatPengiriman": "",
    "Email": ""
  },
  {
    "IdCustomer": 180,
    "NamaCustomer": "MUSTAFA'S PTE LTD",
    "KodeCustomer": "MUS",
    "IdLokasi": 17,
    "NamaLokasi": "SINGAPORE",
    "IsLokal": false,
    "LokasiDesc": "SINGAPORE (Ekspor)",
    "Alamat": "",
    "AlamatPengiriman": "",
    "Email": ""
  },
  {
    "IdCustomer": 65,
    "NamaCustomer": "MUSTIKA",
    "KodeCustomer": "020",
    "IdLokasi": 9,
    "NamaLokasi": "JAWA ",
    "IsLokal": true,
    "LokasiDesc": "JAWA  (Lokal)",
    "Alamat": "",
    "AlamatPengiriman": "",
    "Email": ""
  },
  {
    "IdCustomer": 2,
    "NamaCustomer": "NIMISHA",
    "KodeCustomer": "NMS",
    "IdLokasi": 4,
    "NamaLokasi": "DUBAI",
    "IsLokal": false,
    "LokasiDesc": "DUBAI (Ekspor)",
    "Alamat": "",
    "AlamatPengiriman": "",
    "Email": ""
  },
  {
    "IdCustomer": 80,
    "NamaCustomer": "NORI",
    "KodeCustomer": "019",
    "IdLokasi": 9,
    "NamaLokasi": "JAWA ",
    "IsLokal": true,
    "LokasiDesc": "JAWA  (Lokal)",
    "Alamat": "",
    "AlamatPengiriman": "",
    "Email": ""
  },
  {
    "IdCustomer": 24,
    "NamaCustomer": "ORO ART",
    "KodeCustomer": "OA",
    "IdLokasi": 5,
    "NamaLokasi": "HONGKONG",
    "IsLokal": false,
    "LokasiDesc": "HONGKONG (Ekspor)",
    "Alamat": "",
    "AlamatPengiriman": "",
    "Email": ""
  },
  {
    "IdCustomer": 31,
    "NamaCustomer": "ORO BOLEADO",
    "KodeCustomer": "OB",
    "IdLokasi": 4,
    "NamaLokasi": "DUBAI",
    "IsLokal": false,
    "LokasiDesc": "DUBAI (Ekspor)",
    "Alamat": "",
    "AlamatPengiriman": "",
    "Email": ""
  },
  {
    "IdCustomer": 10,
    "NamaCustomer": "PAPA AZIS",
    "KodeCustomer": "PA",
    "IdLokasi": 4,
    "NamaLokasi": "DUBAI",
    "IsLokal": false,
    "LokasiDesc": "DUBAI (Ekspor)",
    "Alamat": "",
    "AlamatPengiriman": "",
    "Email": ""
  },
  {
    "IdCustomer": 117,
    "NamaCustomer": "PARADISO",
    "KodeCustomer": "056",
    "IdLokasi": 14,
    "NamaLokasi": "UJUNGPANDANG",
    "IsLokal": true,
    "LokasiDesc": "UJUNGPANDANG (Lokal)",
    "Alamat": "",
    "AlamatPengiriman": "",
    "Email": ""
  },
  {
    "IdCustomer": 71,
    "NamaCustomer": "PESONA",
    "KodeCustomer": "008",
    "IdLokasi": 9,
    "NamaLokasi": "JAWA ",
    "IsLokal": true,
    "LokasiDesc": "JAWA  (Lokal)",
    "Alamat": "",
    "AlamatPengiriman": "",
    "Email": ""
  },
  {
    "IdCustomer": 178,
    "NamaCustomer": "PNJ",
    "KodeCustomer": "PNJ",
    "IdLokasi": 28,
    "NamaLokasi": "VIETNAM",
    "IsLokal": false,
    "LokasiDesc": "VIETNAM (Ekspor)",
    "Alamat": "",
    "AlamatPengiriman": "",
    "Email": ""
  },
  {
    "IdCustomer": 166,
    "NamaCustomer": "PT SUMBER KREASI CIPTA LOGAM",
    "KodeCustomer": "SKC",
    "IdLokasi": 7,
    "NamaLokasi": "JAKARTA",
    "IsLokal": false,
    "LokasiDesc": "JAKARTA (Ekspor)",
    "Alamat": "",
    "AlamatPengiriman": "",
    "Email": ""
  },
  {
    "IdCustomer": 167,
    "NamaCustomer": "PT TRINITY SENTRA MULYA",
    "KodeCustomer": "TRIN",
    "IdLokasi": 3,
    "NamaLokasi": "JAKARTA",
    "IsLokal": true,
    "LokasiDesc": "JAKARTA (Lokal)",
    "Alamat": "",
    "AlamatPengiriman": "",
    "Email": ""
  },
  {
    "IdCustomer": 124,
    "NamaCustomer": "QICO ORO",
    "KodeCustomer": "QC",
    "IdLokasi": 5,
    "NamaLokasi": "HONGKONG",
    "IsLokal": false,
    "LokasiDesc": "HONGKONG (Ekspor)",
    "Alamat": "",
    "AlamatPengiriman": "",
    "Email": ""
  },
  {
    "IdCustomer": 160,
    "NamaCustomer": "REGAL JEWELLERY",
    "KodeCustomer": "REG",
    "IdLokasi": 6,
    "NamaLokasi": "USA",
    "IsLokal": false,
    "LokasiDesc": "USA (Ekspor)",
    "Alamat": "UK",
    "AlamatPengiriman": "UK",
    "Email": ""
  },
  {
    "IdCustomer": 28,
    "NamaCustomer": "ROYALCHAIN",
    "KodeCustomer": "RC",
    "IdLokasi": 6,
    "NamaLokasi": "USA",
    "IsLokal": false,
    "LokasiDesc": "USA (Ekspor)",
    "Alamat": "2 WEST 46th STREET\nNEW YORK\nNY - 10036\nUSA\n(800) 622-0960",
    "AlamatPengiriman": "2 WEST 46th STREET\nNEW YORK\nNY - 10036\nUSA\n(800) 622-0960",
    "Email": ""
  },
  {
    "IdCustomer": 147,
    "NamaCustomer": "RUBEN'S JEWELRY",
    "KodeCustomer": "RBN",
    "IdLokasi": 6,
    "NamaLokasi": "USA",
    "IsLokal": false,
    "LokasiDesc": "USA (Ekspor)",
    "Alamat": "650 SOUTH HILL STREET, SUITE #414\nLOS ANGELES, CA 90014\nUNITED STATES OF AMERICA",
    "AlamatPengiriman": "650 SOUTH HILL STREET, SUITE #414\nLOS ANGELES, CA 90014\nUNITED STATES OF AMERICA",
    "Email": "rubensmfg@gmail.com"
  },
  {
    "IdCustomer": 137,
    "NamaCustomer": "RUBY JEWELLERY",
    "KodeCustomer": "RBJ",
    "IdLokasi": 6,
    "NamaLokasi": "USA",
    "IsLokal": false,
    "LokasiDesc": "USA (Ekspor)",
    "Alamat": "650 S. HILL ST. #628\nLOS ANGELES, CA 90014\nT: 213 489 7829\nF: 213 489 7645",
    "AlamatPengiriman": "650 S. HILL ST. #628\nLOS ANGELES, CA 90014\nT: 213 489 7829\nF: 213 489 7645",
    "Email": "sales@rbjonline.com"
  },
  {
    "IdCustomer": 11,
    "NamaCustomer": "SAMRA",
    "KodeCustomer": "SMR",
    "IdLokasi": 4,
    "NamaLokasi": "DUBAI",
    "IsLokal": false,
    "LokasiDesc": "DUBAI (Ekspor)",
    "Alamat": "",
    "AlamatPengiriman": "",
    "Email": ""
  },
  {
    "IdCustomer": 45,
    "NamaCustomer": "SCHREIBER & CO",
    "KodeCustomer": "SCH",
    "IdLokasi": 6,
    "NamaLokasi": "USA",
    "IsLokal": false,
    "LokasiDesc": "USA (Ekspor)",
    "Alamat": "",
    "AlamatPengiriman": "",
    "Email": ""
  },
  {
    "IdCustomer": 58,
    "NamaCustomer": "SINAR AGUNG",
    "KodeCustomer": "016",
    "IdLokasi": 3,
    "NamaLokasi": "JAKARTA",
    "IsLokal": true,
    "LokasiDesc": "JAKARTA (Lokal)",
    "Alamat": "",
    "AlamatPengiriman": "",
    "Email": ""
  },
  {
    "IdCustomer": 118,
    "NamaCustomer": "SINCHE",
    "KodeCustomer": "057",
    "IdLokasi": 14,
    "NamaLokasi": "UJUNGPANDANG",
    "IsLokal": true,
    "LokasiDesc": "UJUNGPANDANG (Lokal)",
    "Alamat": "",
    "AlamatPengiriman": "",
    "Email": ""
  },
  {
    "IdCustomer": 25,
    "NamaCustomer": "SING HO",
    "KodeCustomer": "SH",
    "IdLokasi": 5,
    "NamaLokasi": "HONGKONG",
    "IsLokal": false,
    "LokasiDesc": "HONGKONG (Ekspor)",
    "Alamat": "",
    "AlamatPengiriman": "",
    "Email": ""
  },
  {
    "IdCustomer": 104,
    "NamaCustomer": "SIULIEN",
    "KodeCustomer": "043",
    "IdLokasi": 2,
    "NamaLokasi": "SURABAYA",
    "IsLokal": true,
    "LokasiDesc": "SURABAYA (Lokal)",
    "Alamat": "",
    "AlamatPengiriman": "",
    "Email": ""
  },
  {
    "IdCustomer": 76,
    "NamaCustomer": "SOFIAN",
    "KodeCustomer": "014",
    "IdLokasi": 3,
    "NamaLokasi": "JAKARTA",
    "IsLokal": true,
    "LokasiDesc": "JAKARTA (Lokal)",
    "Alamat": "",
    "AlamatPengiriman": "",
    "Email": ""
  },
  {
    "IdCustomer": 181,
    "NamaCustomer": "SONA JEWELLERS",
    "KodeCustomer": "SONA",
    "IdLokasi": 4,
    "NamaLokasi": "DUBAI",
    "IsLokal": false,
    "LokasiDesc": "DUBAI (Ekspor)",
    "Alamat": "",
    "AlamatPengiriman": "",
    "Email": ""
  },
  {
    "IdCustomer": 106,
    "NamaCustomer": "SRIKANDI BABAT",
    "KodeCustomer": "045",
    "IdLokasi": 2,
    "NamaLokasi": "SURABAYA",
    "IsLokal": true,
    "LokasiDesc": "SURABAYA (Lokal)",
    "Alamat": "",
    "AlamatPengiriman": "",
    "Email": ""
  },
  {
    "IdCustomer": 89,
    "NamaCustomer": "SRIWIJAYA",
    "KodeCustomer": "028",
    "IdLokasi": 2,
    "NamaLokasi": "SURABAYA",
    "IsLokal": true,
    "LokasiDesc": "SURABAYA (Lokal)",
    "Alamat": "",
    "AlamatPengiriman": "",
    "Email": ""
  },
  {
    "IdCustomer": 128,
    "NamaCustomer": "STANLEY CREATIONS, INC.",
    "KodeCustomer": "SC",
    "IdLokasi": 6,
    "NamaLokasi": "USA",
    "IsLokal": false,
    "LokasiDesc": "USA (Ekspor)",
    "Alamat": "31-00 47th Avenue Long Island City, NY 11101",
    "AlamatPengiriman": "31-00 47th Avenue Long Island City, NY 11101",
    "Email": "fred@stanleycreations.com"
  },
  {
    "IdCustomer": 151,
    "NamaCustomer": "STILISTI",
    "KodeCustomer": "STS",
    "IdLokasi": 6,
    "NamaLokasi": "USA",
    "IsLokal": false,
    "LokasiDesc": "USA (Ekspor)",
    "Alamat": "Roslagsgatan 60.11354 Stockholm, Sweden\nTelp: +46 (0)8 664 58 56",
    "AlamatPengiriman": "Roslagsgatan 60.11354 Stockholm, Sweden\nTelp: +46 (0)8 664 58 56",
    "Email": "info@stilisti.se"
  },
  {
    "IdCustomer": 54,
    "NamaCustomer": "STOK",
    "KodeCustomer": "STOK",
    "IdLokasi": 1,
    "NamaLokasi": "BANDUNG",
    "IsLokal": true,
    "LokasiDesc": "BANDUNG (Lokal)",
    "Alamat": "",
    "AlamatPengiriman": "",
    "Email": ""
  },
  {
    "IdCustomer": 69,
    "NamaCustomer": "SUBUR",
    "KodeCustomer": "006",
    "IdLokasi": 12,
    "NamaLokasi": "CIKARANG",
    "IsLokal": true,
    "LokasiDesc": "CIKARANG (Lokal)",
    "Alamat": "",
    "AlamatPengiriman": "",
    "Email": ""
  },
  {
    "IdCustomer": 98,
    "NamaCustomer": "SURABAYA",
    "KodeCustomer": "036",
    "IdLokasi": 15,
    "NamaLokasi": "TASIK",
    "IsLokal": true,
    "LokasiDesc": "TASIK (Lokal)",
    "Alamat": "",
    "AlamatPengiriman": "",
    "Email": ""
  },
  {
    "IdCustomer": 63,
    "NamaCustomer": "SUTAN",
    "KodeCustomer": "039",
    "IdLokasi": 9,
    "NamaLokasi": "JAWA ",
    "IsLokal": true,
    "LokasiDesc": "JAWA  (Lokal)",
    "Alamat": "",
    "AlamatPengiriman": "",
    "Email": ""
  },
  {
    "IdCustomer": 9,
    "NamaCustomer": "SWISS GOLD",
    "KodeCustomer": "SG",
    "IdLokasi": 4,
    "NamaLokasi": "DUBAI",
    "IsLokal": false,
    "LokasiDesc": "DUBAI (Ekspor)",
    "Alamat": "",
    "AlamatPengiriman": "",
    "Email": ""
  },
  {
    "IdCustomer": 145,
    "NamaCustomer": "SWISS STAR",
    "KodeCustomer": "SS",
    "IdLokasi": 4,
    "NamaLokasi": "DUBAI",
    "IsLokal": false,
    "LokasiDesc": "DUBAI (Ekspor)",
    "Alamat": "",
    "AlamatPengiriman": "",
    "Email": ""
  },
  {
    "IdCustomer": 158,
    "NamaCustomer": "SYNTHESIS PACIFIC LIMITED",
    "KodeCustomer": "SYN",
    "IdLokasi": 5,
    "NamaLokasi": "HONGKONG",
    "IsLokal": false,
    "LokasiDesc": "HONGKONG (Ekspor)",
    "Alamat": "ROOM F2-05, 10/F, HANG FUNG BUILDING, PHASE 2, 2G HOK YUEN STREET, HUNGHOM, KOWLOON, HK\nTEL : (852) 2954 0048",
    "AlamatPengiriman": "ROOM F2-05, 10/F, HANG FUNG BUILDING, PHASE 2, 2G HOK YUEN STREET, HUNGHOM, KOWLOON, HK\nTEL : (852) 2954 0048",
    "Email": "enrico@synthesispacific.com"
  },
  {
    "IdCustomer": 133,
    "NamaCustomer": "TALA GOLD JEWELLERY",
    "KodeCustomer": "TL",
    "IdLokasi": 22,
    "NamaLokasi": "ITALY",
    "IsLokal": false,
    "LokasiDesc": "ITALY (Ekspor)",
    "Alamat": "VIA VECCHIA FERRIERA, 70\n36100 VICENZA (ITALY)",
    "AlamatPengiriman": "VIA VECCHIA FERRIERA, 70\n36100 VICENZA (ITALY)",
    "Email": "tala@tala.it"
  },
  {
    "IdCustomer": 144,
    "NamaCustomer": "THANGAM JEWELLERY",
    "KodeCustomer": "Thangam",
    "IdLokasi": 4,
    "NamaLokasi": "DUBAI",
    "IsLokal": false,
    "LokasiDesc": "DUBAI (Ekspor)",
    "Alamat": "",
    "AlamatPengiriman": "",
    "Email": ""
  },
  {
    "IdCustomer": 35,
    "NamaCustomer": "THE PALACE",
    "KodeCustomer": "TP",
    "IdLokasi": 7,
    "NamaLokasi": "JAKARTA",
    "IsLokal": false,
    "LokasiDesc": "JAKARTA (Ekspor)",
    "Alamat": "",
    "AlamatPengiriman": "",
    "Email": ""
  },
  {
    "IdCustomer": 114,
    "NamaCustomer": "TRI",
    "KodeCustomer": "053",
    "IdLokasi": 2,
    "NamaLokasi": "SURABAYA",
    "IsLokal": true,
    "LokasiDesc": "SURABAYA (Lokal)",
    "Alamat": "",
    "AlamatPengiriman": "",
    "Email": ""
  },
  {
    "IdCustomer": 179,
    "NamaCustomer": "TRINITY SENTRA MULIA",
    "KodeCustomer": "TRIN",
    "IdLokasi": 7,
    "NamaLokasi": "JAKARTA",
    "IsLokal": false,
    "LokasiDesc": "JAKARTA (Ekspor)",
    "Alamat": "",
    "AlamatPengiriman": "",
    "Email": ""
  },
  {
    "IdCustomer": 113,
    "NamaCustomer": "URGENT",
    "KodeCustomer": "052",
    "IdLokasi": 1,
    "NamaLokasi": "BANDUNG",
    "IsLokal": true,
    "LokasiDesc": "BANDUNG (Lokal)",
    "Alamat": "",
    "AlamatPengiriman": "",
    "Email": ""
  },
  {
    "IdCustomer": 12,
    "NamaCustomer": "VAMA",
    "KodeCustomer": "VM",
    "IdLokasi": 4,
    "NamaLokasi": "DUBAI",
    "IsLokal": false,
    "LokasiDesc": "DUBAI (Ekspor)",
    "Alamat": "",
    "AlamatPengiriman": "",
    "Email": ""
  },
  {
    "IdCustomer": 101,
    "NamaCustomer": "VANYA",
    "KodeCustomer": "040",
    "IdLokasi": 9,
    "NamaLokasi": "JAWA ",
    "IsLokal": true,
    "LokasiDesc": "JAWA  (Lokal)",
    "Alamat": "",
    "AlamatPengiriman": "",
    "Email": ""
  },
  {
    "IdCustomer": 32,
    "NamaCustomer": "VH",
    "KodeCustomer": "VH",
    "IdLokasi": 4,
    "NamaLokasi": "DUBAI",
    "IsLokal": false,
    "LokasiDesc": "DUBAI (Ekspor)",
    "Alamat": "",
    "AlamatPengiriman": "",
    "Email": ""
  },
  {
    "IdCustomer": 141,
    "NamaCustomer": "WHIZLIZ",
    "KodeCustomer": "WL375",
    "IdLokasi": 1,
    "NamaLokasi": "BANDUNG",
    "IsLokal": true,
    "LokasiDesc": "BANDUNG (Lokal)",
    "Alamat": "",
    "AlamatPengiriman": "",
    "Email": ""
  },
  {
    "IdCustomer": 86,
    "NamaCustomer": "WINDU",
    "KodeCustomer": "027",
    "IdLokasi": 9,
    "NamaLokasi": "JAWA ",
    "IsLokal": true,
    "LokasiDesc": "JAWA  (Lokal)",
    "Alamat": "",
    "AlamatPengiriman": "",
    "Email": ""
  },
  {
    "IdCustomer": 26,
    "NamaCustomer": "WOO LEUNG LEE",
    "KodeCustomer": "WLL",
    "IdLokasi": 5,
    "NamaLokasi": "HONGKONG",
    "IsLokal": false,
    "LokasiDesc": "HONGKONG (Ekspor)",
    "Alamat": "",
    "AlamatPengiriman": "",
    "Email": ""
  },
  {
    "IdCustomer": 27,
    "NamaCustomer": "WU LEUNG LEE (MAN YICK) JEW. CO",
    "KodeCustomer": "WUL",
    "IdLokasi": 5,
    "NamaLokasi": "HONGKONG",
    "IsLokal": false,
    "LokasiDesc": "HONGKONG (Ekspor)",
    "Alamat": "18/F., WING TUCK COMMERCIAL CENTRE,\n177-183 WING LOK STREET\nHONG KONG\nTEL : (852) 2541 8111\nFAX : (852) 2541 4041\n",
    "AlamatPengiriman": "18/F., WING TUCK COMMERCIAL CENTRE,\n177-183 WING LOK STREET\nHONG KONG\nTEL : (852) 2541 8111\nFAX : (852) 2541 4041\n",
    "Email": ""
  },
  {
    "IdCustomer": 168,
    "NamaCustomer": "Z'S CREATIONS INC.",
    "KodeCustomer": "ZCI",
    "IdLokasi": 6,
    "NamaLokasi": "USA",
    "IsLokal": false,
    "LokasiDesc": "USA (Ekspor)",
    "Alamat": "",
    "AlamatPengiriman": "",
    "Email": ""
  },
  {
    "IdCustomer": 130,
    "NamaCustomer": "ZUMURUDA JEWELLERS",
    "KodeCustomer": "ZJ",
    "IdLokasi": 4,
    "NamaLokasi": "DUBAI",
    "IsLokal": false,
    "LokasiDesc": "DUBAI (Ekspor)",
    "Alamat": "Gold Souk, The Gold centre bldg\nMezzanine floor, shop no 11/12\nP.O Box : 3992, Dubai- U.A.E",
    "AlamatPengiriman": "Gold Souk, The Gold centre bldg\nMezzanine floor, shop no 11/12\nP.O Box : 3992, Dubai- U.A.E",
    "Email": "info@zumuruda.net"
  }
]