[
  {
    "IdKategoriPerubahanModelRND": 1,
    "NamaKategoriPerubahanModelRND": "Tooling Baru / Eksperimen",
    "EnableInputIdBarangJadi": true
  },
  {
    "IdKategoriPerubahanModelRND": 2,
    "NamaKategoriPerubahanModelRND": "Ubah Data",
    "EnableInputIdBarangJadi": true
  },
  {
    "IdKategoriPerubahanModelRND": 3,
    "NamaKategoriPerubahanModelRND": "Produk Baru",
    "EnableInputIdBarangJadi": false
  },
  {
    "IdKategoriPerubahanModelRND": 4,
    "NamaKategoriPerubahanModelRND": "Ubah Master",
    "EnableInputIdBarangJadi": true
  }
]